<?xml version="1.0" encoding="utf-8"?>
<!-- Generator: Adobe Illustrator 23.0.6, SVG Export Plug-In . SVG Version: 6.00 Build 0)  -->
<svg version="1.1" id="Calque_1" xmlns="http://www.w3.org/2000/svg" xmlns:xlink="http://www.w3.org/1999/xlink" x="0px" y="0px"
	 viewBox="0 0 635 260.1" style="enable-background:new 0 0 635 260.1;" xml:space="preserve">
<style type="text/css">
	.st0{fill-rule:evenodd;clip-rule:evenodd;fill:#878888;}
	.st1{fill:#FFFFFF;}
	.st2{opacity:0.5137;fill-rule:evenodd;clip-rule:evenodd;fill:#7DB02A;enable-background:new    ;}
	.st3{fill-rule:evenodd;clip-rule:evenodd;fill:#288AA0;}
	.st4{fill-rule:evenodd;clip-rule:evenodd;fill:#7DB02A;}
	.st5{fill:none;stroke:#5A5A5A;stroke-width:3;stroke-linejoin:round;stroke-miterlimit:8;}
	.st6{fill-rule:evenodd;clip-rule:evenodd;fill:#010202;fill-opacity:0;}
	.st7{fill:none;stroke:#7DB02A;stroke-width:3;stroke-linejoin:round;stroke-miterlimit:8;}
	.st8{fill:#1D1D1B;}
	.st9{fill:none;stroke:#FFFFFF;stroke-width:3;stroke-miterlimit:1;}
	.st10{fill-rule:evenodd;clip-rule:evenodd;fill:#5A5A5A;}
	.st11{fill:#5A5A5A;}
</style>
<path class="st0" d="M564.8,11.4L564.8,11.4c0-6.2,5.2-11.3,11.7-11.3h46.8c3.1,0,6.1,1.2,8.3,3.3s3.4,5,3.4,8v237.2
	c0,6.2-5.2,11.3-11.7,11.3h-46.8c-6.5,0-11.7-5-11.7-11.3V11.4z"/>
<path class="st0" d="M0,8.3L0,8.3c0-4.4,3.6-8,8-8h31.9c2.1,0,4.1,0.8,5.6,2.3s2.3,3.5,2.3,5.6v243.8c0,4.4-3.6,8-8,8H8
	c-4.4,0-8-3.6-8-8V8.3z"/>
<g>
	<path class="st1" d="M3.4,142.2c0.5-1,1.3-1.7,2.3-2.3s2.1-0.8,3.3-0.8c1.5,0,2.8,0.4,3.9,1.2s1.8,1.9,2.1,3.2h-3.4
		c-0.3-0.5-0.6-0.9-1.1-1.2c-0.5-0.3-1-0.4-1.6-0.4c-0.9,0-1.7,0.3-2.3,1c-0.6,0.7-0.9,1.5-0.9,2.6c0,1.1,0.3,2,0.9,2.6
		c0.6,0.7,1.4,1,2.3,1c0.6,0,1.1-0.1,1.6-0.4c0.5-0.3,0.8-0.7,1.1-1.2H15c-0.4,1.4-1.1,2.4-2.1,3.2S10.5,152,9,152
		c-1.2,0-2.3-0.3-3.3-0.8s-1.7-1.3-2.3-2.3s-0.8-2.1-0.8-3.3S2.9,143.2,3.4,142.2z"/>
	<path class="st1" d="M18.8,151.4c-0.8-0.4-1.4-1-1.9-1.8s-0.7-1.7-0.7-2.7c0-1,0.2-1.9,0.7-2.7c0.5-0.8,1.1-1.4,1.9-1.8
		s1.7-0.6,2.7-0.6s1.9,0.2,2.7,0.6s1.4,1,1.9,1.8s0.7,1.7,0.7,2.7s-0.2,1.9-0.7,2.7s-1.1,1.4-1.9,1.8s-1.7,0.6-2.7,0.6
		C20.5,152,19.6,151.8,18.8,151.4z M22.9,148.7c0.4-0.4,0.6-1.1,0.6-1.9s-0.2-1.4-0.6-1.9s-0.9-0.6-1.5-0.6c-0.6,0-1.1,0.2-1.5,0.6
		c-0.4,0.4-0.6,1.1-0.6,1.9c0,0.8,0.2,1.4,0.6,1.9s0.9,0.6,1.5,0.6C22,149.3,22.5,149.1,22.9,148.7z"/>
	<path class="st1" d="M32.8,142.2c0.5-0.3,1.1-0.5,1.8-0.5v3.3h-0.8c-0.8,0-1.3,0.2-1.7,0.5c-0.4,0.3-0.6,0.9-0.6,1.7v4.7h-3.1v-10
		h3.1v1.7C31.8,142.9,32.2,142.5,32.8,142.2z"/>
	<path class="st1" d="M45.4,147.6h-7c0,0.6,0.3,1.1,0.6,1.4c0.3,0.3,0.8,0.5,1.3,0.5c0.8,0,1.3-0.3,1.6-1h3.3
		c-0.2,0.7-0.5,1.3-0.9,1.8s-1,0.9-1.7,1.2s-1.4,0.4-2.2,0.4c-1,0-1.9-0.2-2.6-0.6s-1.4-1-1.8-1.8s-0.7-1.7-0.7-2.7
		c0-1,0.2-2,0.6-2.7s1-1.4,1.8-1.8s1.7-0.6,2.7-0.6c1,0,1.8,0.2,2.6,0.6c0.8,0.4,1.3,1,1.8,1.8c0.4,0.8,0.6,1.6,0.6,2.6
		C45.5,147,45.5,147.3,45.4,147.6z M42.3,145.9c0-0.5-0.2-0.9-0.5-1.3s-0.8-0.5-1.3-0.5c-0.5,0-1,0.1-1.3,0.4s-0.6,0.7-0.7,1.3H42.3
		z"/>
</g>
<path class="st1" d="M30.6,98.3c-2.9-2.9-5.8-5.7-6.6-8.9c-0.8,3.2-3.6,6-6.6,8.9C13,102.7,8,107.7,8,115.2c0,8.8,7.2,16,16,16
	s16-7.2,16-16C40,107.7,35,102.7,30.6,98.3 M14.8,118.9c-1,0-4.6-6.3,2.1-12.9l4.4,4.8c0.1,0.2,0.1,0.4,0,0.5c0,0,0,0,0,0
	c-1.1,1.1-5.6,5.6-6.1,7.2C15.1,118.9,14.9,118.9,14.8,118.9 M24,127.1c-3,0-5.5-2.5-5.5-5.5l0,0c0-1.4,0.5-2.6,1.4-3.6
	c1-1.2,4.1-4.6,4.1-4.6s3.1,3.5,4.1,4.6c0.9,1,1.4,2.3,1.4,3.6C29.5,124.7,27,127.1,24,127.1 M34.5,118.2c-0.1,0.3-0.4,0.7-0.8,0.7
	c-0.7,0-0.7-0.3-1.2-1c-1-1.6-10.2-11.1-11.9-13c-1.5-1.6-0.2-2.8,0.4-3.4c0.8-0.8,3-2.9,3-2.9s6.6,6.2,9.3,10.5
	S35.1,117,34.5,118.2"/>
<path class="st0" d="M52.8,8.2L52.8,8.2c0-4.4,3.6-8,8-8h31.9c2.1,0,4.1,0.8,5.6,2.3s2.3,3.5,2.3,5.6v243.8c0,4.4-3.6,8-8,8H60.8
	c-4.4,0-8-3.6-8-8L52.8,8.2L52.8,8.2z"/>
<g>
	<path class="st1" d="M63.1,121v1.6h2.5v1.4h-2.5v1.7h2.9v1.5h-4.7v-7.7h4.7v1.5H63.1z"/>
	<path class="st1" d="M72.6,121.7c0.4,0.5,0.6,1.1,0.6,1.9v3.6h-1.9v-3.3c0-0.4-0.1-0.7-0.3-1s-0.5-0.3-0.9-0.3s-0.7,0.1-0.9,0.3
		s-0.3,0.6-0.3,1v3.3h-1.9V121H69v0.8c0.2-0.3,0.4-0.5,0.8-0.6c0.3-0.2,0.7-0.2,1.1-0.2C71.6,121,72.2,121.2,72.6,121.7z"/>
	<path class="st1" d="M78,125.6v1.6h-1c-0.7,0-1.2-0.2-1.6-0.5c-0.4-0.3-0.6-0.9-0.6-1.6v-2.4h-0.8v-1.6h0.8v-1.5h1.9v1.5H78v1.6
		h-1.2v2.5c0,0.2,0,0.3,0.1,0.4s0.2,0.1,0.4,0.1H78z"/>
	<path class="st1" d="M79.2,120.1c-0.2-0.2-0.3-0.4-0.3-0.7s0.1-0.5,0.3-0.7s0.5-0.3,0.8-0.3c0.3,0,0.6,0.1,0.8,0.3s0.3,0.4,0.3,0.7
		s-0.1,0.5-0.3,0.7s-0.5,0.3-0.8,0.3C79.7,120.4,79.4,120.3,79.2,120.1z M80.9,121v6.1H79V121H80.9z"/>
	<path class="st1" d="M85.7,125.6v1.6h-1c-0.7,0-1.2-0.2-1.6-0.5c-0.4-0.3-0.6-0.9-0.6-1.6v-2.4h-0.8v-1.6h0.8v-1.5h1.9v1.5h1.2v1.6
		h-1.2v2.5c0,0.2,0,0.3,0.1,0.4s0.2,0.1,0.4,0.1H85.7z"/>
	<path class="st1" d="M93,121l-3.8,9.1h-2l1.4-3.1l-2.5-5.9h2.1l1.4,3.8L91,121H93z"/>
</g>
<g>
	<path class="st1" d="M66.1,133v1.5H64v6.2h-1.9v-6.2h-2V133H66.1z"/>
	<path class="st1" d="M73.3,134.6l-3.8,9.1h-2l1.4-3.1l-2.5-5.9h2.1l1.4,3.8l1.4-3.8L73.3,134.6L73.3,134.6z"/>
	<path class="st1" d="M76.6,134.7c0.3-0.2,0.7-0.3,1.1-0.3c0.5,0,1,0.1,1.4,0.4c0.4,0.3,0.7,0.6,1,1.1s0.4,1,0.4,1.7
		s-0.1,1.2-0.4,1.7s-0.6,0.9-1,1.1s-0.9,0.4-1.4,0.4c-0.4,0-0.8-0.1-1.1-0.3s-0.6-0.4-0.8-0.7v3.8H74v-9.1h1.9v0.9
		C76.1,135.1,76.3,134.9,76.6,134.7z M78.2,136.5c-0.3-0.3-0.6-0.4-1-0.4c-0.4,0-0.7,0.1-0.9,0.4s-0.4,0.6-0.4,1.1s0.1,0.8,0.4,1.1
		s0.6,0.4,0.9,0.4s0.7-0.1,1-0.4c0.3-0.3,0.4-0.6,0.4-1.1C78.6,137.1,78.4,136.8,78.2,136.5z"/>
	<path class="st1" d="M87.2,138.1h-4.3c0,0.4,0.2,0.7,0.4,0.9c0.2,0.2,0.5,0.3,0.8,0.3c0.5,0,0.8-0.2,1-0.6h2
		c-0.1,0.4-0.3,0.8-0.6,1.1c-0.3,0.3-0.6,0.6-1,0.8c-0.4,0.2-0.8,0.3-1.3,0.3c-0.6,0-1.1-0.1-1.6-0.4c-0.5-0.3-0.8-0.6-1.1-1.1
		c-0.3-0.5-0.4-1-0.4-1.7s0.1-1.2,0.4-1.7c0.3-0.5,0.6-0.8,1.1-1.1s1-0.4,1.6-0.4c0.6,0,1.1,0.1,1.6,0.4s0.8,0.6,1.1,1.1
		c0.3,0.5,0.4,1,0.4,1.6C87.2,137.7,87.2,137.9,87.2,138.1z M85.3,137c0-0.3-0.1-0.6-0.3-0.8s-0.5-0.3-0.8-0.3
		c-0.3,0-0.6,0.1-0.8,0.3c-0.2,0.2-0.3,0.4-0.4,0.8L85.3,137L85.3,137z"/>
	<path class="st1" d="M89.3,140.5c-0.4-0.2-0.8-0.4-1-0.8s-0.4-0.7-0.4-1.1h1.9c0,0.2,0.1,0.4,0.3,0.5s0.4,0.2,0.7,0.2
		c0.2,0,0.4-0.1,0.5-0.1c0.1-0.1,0.2-0.2,0.2-0.4c0-0.2-0.1-0.3-0.3-0.4s-0.5-0.2-0.9-0.3c-0.4-0.1-0.8-0.2-1.1-0.3
		s-0.6-0.3-0.8-0.5s-0.3-0.6-0.3-1c0-0.4,0.1-0.7,0.3-1c0.2-0.3,0.5-0.5,0.9-0.7s0.8-0.3,1.3-0.3c0.8,0,1.4,0.2,1.8,0.6
		s0.7,0.9,0.8,1.5h-1.7c0-0.2-0.1-0.4-0.3-0.5c-0.2-0.1-0.4-0.2-0.6-0.2c-0.2,0-0.4,0-0.5,0.1c-0.1,0.1-0.2,0.2-0.2,0.4
		c0,0.2,0.1,0.3,0.3,0.4s0.5,0.2,0.9,0.3c0.5,0.1,0.8,0.2,1.1,0.4c0.3,0.1,0.5,0.3,0.8,0.6c0.2,0.3,0.3,0.6,0.3,1
		c0,0.4-0.1,0.7-0.3,1c-0.2,0.3-0.5,0.5-0.9,0.7s-0.8,0.2-1.3,0.2C90.2,140.8,89.7,140.7,89.3,140.5z"/>
</g>
<path class="st0" d="M106.7,8.2L106.7,8.2c0-4.4,3.6-8,8-8h31.9c2.1,0,4.1,0.8,5.6,2.3s2.3,3.5,2.3,5.6v243.8c0,4.4-3.6,8-8,8h-31.9
	c-4.4,0-8-3.6-8-8L106.7,8.2L106.7,8.2z"/>
<g>
	<path class="st1" d="M115.1,119.9c0.6,0.3,1.1,0.8,1.4,1.4s0.5,1.3,0.5,2c0,0.8-0.2,1.4-0.5,2c-0.3,0.6-0.8,1-1.4,1.4
		s-1.3,0.5-2.1,0.5H110v-7.7h2.9C113.7,119.5,114.4,119.6,115.1,119.9z M114.5,125c0.4-0.4,0.6-0.9,0.6-1.7s-0.2-1.3-0.6-1.7
		c-0.4-0.4-0.9-0.6-1.7-0.6h-0.9v4.5h0.9C113.5,125.6,114.1,125.4,114.5,125z"/>
	<path class="st1" d="M118.2,120.1c-0.2-0.2-0.3-0.4-0.3-0.7s0.1-0.5,0.3-0.7s0.5-0.3,0.8-0.3c0.3,0,0.6,0.1,0.8,0.3
		s0.3,0.4,0.3,0.7s-0.1,0.5-0.3,0.7s-0.5,0.3-0.8,0.3C118.6,120.4,118.4,120.3,118.2,120.1z M119.9,121v6.1H118V121H119.9z"/>
	<path class="st1" d="M122.3,127c-0.4-0.2-0.8-0.4-1-0.8s-0.4-0.7-0.4-1.1h1.9c0,0.2,0.1,0.4,0.3,0.5s0.4,0.2,0.7,0.2
		c0.2,0,0.4-0.1,0.5-0.1c0.1-0.1,0.2-0.2,0.2-0.4c0-0.2-0.1-0.3-0.3-0.4s-0.5-0.2-0.9-0.3c-0.4-0.1-0.8-0.2-1.1-0.3
		s-0.6-0.3-0.8-0.5s-0.3-0.6-0.3-1c0-0.3,0.1-0.7,0.3-1s0.5-0.5,0.9-0.7c0.4-0.2,0.8-0.3,1.3-0.3c0.8,0,1.4,0.2,1.8,0.6
		s0.7,0.9,0.8,1.5h-1.7c0-0.2-0.1-0.4-0.3-0.5c-0.2-0.1-0.4-0.2-0.6-0.2c-0.2,0-0.4,0-0.5,0.1c-0.1,0.1-0.2,0.2-0.2,0.3
		c0,0.2,0.1,0.3,0.3,0.4c0.2,0.1,0.5,0.2,0.9,0.3c0.5,0.1,0.8,0.2,1.1,0.3c0.3,0.1,0.5,0.3,0.8,0.6c0.2,0.3,0.3,0.6,0.3,1
		c0,0.4-0.1,0.7-0.3,1c-0.2,0.3-0.5,0.5-0.9,0.7s-0.8,0.2-1.3,0.2C123.2,127.3,122.8,127.2,122.3,127z"/>
	<path class="st1" d="M130.1,121.2c0.3-0.2,0.7-0.3,1.1-0.3c0.5,0,1,0.1,1.4,0.4c0.4,0.3,0.7,0.6,1,1.1s0.4,1,0.4,1.7
		s-0.1,1.2-0.4,1.7c-0.2,0.5-0.6,0.8-1,1.1s-0.9,0.4-1.4,0.4c-0.4,0-0.8-0.1-1.1-0.3s-0.6-0.4-0.8-0.7v3.8h-1.9v-9.1h1.9v0.9
		C129.5,121.6,129.7,121.4,130.1,121.2z M131.6,123c-0.3-0.3-0.6-0.4-1-0.4c-0.4,0-0.7,0.1-0.9,0.4s-0.4,0.6-0.4,1.1
		s0.1,0.8,0.4,1.1s0.6,0.4,0.9,0.4s0.7-0.1,1-0.4c0.3-0.3,0.4-0.7,0.4-1.1C132,123.6,131.8,123.3,131.6,123z"/>
	<path class="st1" d="M136.8,119v8.1h-1.9V119H136.8z"/>
	<path class="st1" d="M138.1,122.4c0.2-0.5,0.6-0.8,1-1.1s0.9-0.4,1.4-0.4c0.4,0,0.8,0.1,1.1,0.3s0.6,0.4,0.8,0.7V121h1.9v6.1h-1.9
		v-0.9c-0.2,0.3-0.4,0.5-0.8,0.7s-0.7,0.3-1.1,0.3c-0.5,0-0.9-0.1-1.4-0.4s-0.7-0.6-1-1.1c-0.2-0.5-0.4-1-0.4-1.7
		S137.9,122.9,138.1,122.4z M141.9,123c-0.3-0.3-0.6-0.4-0.9-0.4s-0.7,0.1-0.9,0.4c-0.3,0.3-0.4,0.6-0.4,1.1s0.1,0.8,0.4,1.1
		c0.3,0.3,0.6,0.4,0.9,0.4s0.7-0.1,0.9-0.4c0.3-0.3,0.4-0.6,0.4-1.1S142.2,123.3,141.9,123z"/>
	<path class="st1" d="M151.9,121l-3.9,9.1h-2l1.4-3.1l-2.5-5.9h2.1l1.4,3.8l1.4-3.8H151.9z"/>
</g>
<g>
	<path class="st1" d="M121.4,135.2c0.4,0.5,0.7,1.1,0.7,1.9v3.6h-1.9v-3.3c0-0.4-0.1-0.7-0.3-0.9s-0.5-0.3-0.9-0.3
		c-0.4,0-0.7,0.1-0.9,0.3c-0.2,0.2-0.3,0.5-0.3,0.9v3.3H116v-3.3c0-0.4-0.1-0.7-0.3-0.9s-0.5-0.3-0.9-0.3c-0.4,0-0.7,0.1-0.9,0.3
		c-0.2,0.2-0.3,0.5-0.3,0.9v3.3h-1.9v-6.1h1.9v0.8c0.2-0.3,0.4-0.5,0.8-0.6s0.7-0.2,1.1-0.2c0.5,0,0.9,0.1,1.2,0.3
		c0.4,0.2,0.7,0.5,0.8,0.9c0.2-0.3,0.5-0.6,0.9-0.8c0.4-0.2,0.8-0.3,1.2-0.3C120.4,134.5,121,134.7,121.4,135.2z"/>
	<path class="st1" d="M124.6,140.4c-0.5-0.3-0.9-0.6-1.1-1.1c-0.3-0.5-0.4-1-0.4-1.7c0-0.6,0.1-1.2,0.4-1.7s0.7-0.9,1.1-1.1
		c0.5-0.3,1-0.4,1.6-0.4s1.1,0.1,1.6,0.4s0.9,0.6,1.1,1.1c0.3,0.5,0.4,1,0.4,1.7s-0.1,1.2-0.4,1.7s-0.7,0.9-1.2,1.1s-1,0.4-1.6,0.4
		C125.6,140.8,125.1,140.6,124.6,140.4z M127.1,138.8c0.3-0.3,0.4-0.6,0.4-1.1s-0.1-0.9-0.4-1.1c-0.3-0.3-0.6-0.4-0.9-0.4
		c-0.4,0-0.7,0.1-0.9,0.4c-0.2,0.3-0.4,0.6-0.4,1.1c0,0.5,0.1,0.9,0.4,1.1c0.2,0.3,0.5,0.4,0.9,0.4S126.9,139,127.1,138.8z"/>
	<path class="st1" d="M130.4,135.9c0.2-0.5,0.6-0.8,1-1.1c0.4-0.3,0.9-0.4,1.4-0.4c0.4,0,0.8,0.1,1.1,0.3c0.3,0.2,0.6,0.4,0.8,0.7
		v-2.9h1.9v8.1h-1.9v-0.9c-0.2,0.3-0.4,0.5-0.8,0.7s-0.7,0.3-1.1,0.3c-0.5,0-1-0.1-1.4-0.4c-0.4-0.3-0.7-0.6-1-1.1
		c-0.2-0.5-0.4-1-0.4-1.7S130.2,136.4,130.4,135.9z M134.3,136.5c-0.3-0.3-0.6-0.4-0.9-0.4s-0.7,0.1-0.9,0.4
		c-0.3,0.3-0.4,0.6-0.4,1.1s0.1,0.8,0.4,1.1s0.6,0.4,0.9,0.4s0.7-0.1,0.9-0.4s0.4-0.6,0.4-1.1C134.6,137.1,134.5,136.8,134.3,136.5z
		"/>
	<path class="st1" d="M143.6,138.1h-4.3c0,0.4,0.1,0.7,0.4,0.9c0.2,0.2,0.5,0.3,0.8,0.3c0.5,0,0.8-0.2,1-0.6h2
		c-0.1,0.4-0.3,0.8-0.6,1.1c-0.3,0.3-0.6,0.6-1,0.8c-0.4,0.2-0.9,0.3-1.4,0.3c-0.6,0-1.1-0.1-1.6-0.4c-0.5-0.3-0.8-0.6-1.1-1.1
		c-0.3-0.5-0.4-1-0.4-1.7s0.1-1.2,0.4-1.7c0.3-0.5,0.6-0.8,1.1-1.1s1-0.4,1.6-0.4c0.6,0,1.1,0.1,1.6,0.4s0.8,0.6,1.1,1.1
		c0.3,0.5,0.4,1,0.4,1.6C143.7,137.7,143.7,137.9,143.6,138.1z M141.8,137c0-0.3-0.1-0.6-0.3-0.8s-0.5-0.3-0.8-0.3
		c-0.3,0-0.6,0.1-0.8,0.3c-0.2,0.2-0.4,0.4-0.4,0.8L141.8,137L141.8,137z"/>
	<path class="st1" d="M145.7,140.5c-0.4-0.2-0.8-0.4-1-0.8s-0.4-0.7-0.4-1.1h1.9c0,0.2,0.1,0.4,0.3,0.5s0.4,0.2,0.6,0.2
		c0.2,0,0.4-0.1,0.5-0.1c0.1-0.1,0.2-0.2,0.2-0.4c0-0.2-0.1-0.3-0.3-0.4c-0.2-0.1-0.5-0.2-0.9-0.3c-0.4-0.1-0.8-0.2-1.1-0.3
		c-0.3-0.1-0.6-0.3-0.8-0.5c-0.2-0.3-0.3-0.6-0.3-1c0-0.4,0.1-0.7,0.3-1c0.2-0.3,0.5-0.5,0.9-0.7s0.8-0.3,1.4-0.3
		c0.8,0,1.4,0.2,1.8,0.6s0.7,0.9,0.8,1.5h-1.7c0-0.2-0.1-0.4-0.3-0.5c-0.2-0.1-0.4-0.2-0.6-0.2c-0.2,0-0.4,0-0.5,0.1
		c-0.1,0.1-0.2,0.2-0.2,0.4c0,0.2,0.1,0.3,0.3,0.4s0.5,0.2,0.9,0.3c0.5,0.1,0.8,0.2,1.1,0.4c0.3,0.1,0.5,0.3,0.8,0.6
		c0.2,0.3,0.3,0.6,0.3,1c0,0.4-0.1,0.7-0.3,1c-0.2,0.3-0.5,0.5-0.9,0.7s-0.8,0.2-1.3,0.2C146.6,140.8,146.1,140.7,145.7,140.5z"/>
</g>
<path class="st2" d="M160.5,7.9L160.5,7.9c0-4.4,3.6-8,8-8h45.7c2.1,0,4.1,0.8,5.6,2.3s2.3,3.5,2.3,5.6v31.9c0,4.4-3.6,8-8,8h-45.6
	c-4.4,0-8-3.6-8-8L160.5,7.9L160.5,7.9z"/>
<g>
	<path class="st1" d="M183.9,11l-3.5,9.8h-3l-3.5-9.8h2.6l2.4,7.4l2.4-7.4C181.3,11,183.9,11,183.9,11z"/>
	<path class="st1" d="M185,11.8c-0.3-0.3-0.4-0.6-0.4-0.9s0.1-0.7,0.4-0.9s0.6-0.4,1-0.4c0.4,0,0.8,0.1,1,0.4s0.4,0.6,0.4,0.9
		c0,0.4-0.1,0.7-0.4,0.9s-0.6,0.4-1,0.4C185.6,12.2,185.3,12,185,11.8z M187.3,13v7.8h-2.4V13C184.9,13,187.3,13,187.3,13z"/>
	<path class="st1" d="M196.3,17.4h-5.4c0,0.5,0.2,0.9,0.5,1.1s0.6,0.4,1,0.4c0.6,0,1-0.3,1.3-0.8h2.6c-0.1,0.5-0.4,1-0.7,1.4
		c-0.3,0.4-0.8,0.7-1.3,1c-0.5,0.2-1.1,0.4-1.7,0.4c-0.8,0-1.4-0.2-2-0.5s-1.1-0.8-1.4-1.4c-0.3-0.6-0.5-1.3-0.5-2.1
		c0-0.8,0.2-1.5,0.5-2.1s0.8-1.1,1.4-1.4c0.6-0.3,1.3-0.5,2.1-0.5c0.8,0,1.4,0.2,2,0.5c0.6,0.3,1.1,0.8,1.4,1.4s0.5,1.3,0.5,2.1
		C196.4,17,196.3,17.2,196.3,17.4z M193.9,16.1c0-0.4-0.1-0.7-0.4-1s-0.6-0.4-1.1-0.4c-0.4,0-0.7,0.1-1,0.4s-0.4,0.6-0.5,1
		C190.9,16.1,193.9,16.1,193.9,16.1z"/>
	<path class="st1" d="M208.8,13l-2.1,7.8h-2.6l-1.2-5.1l-1.3,5.1h-2.6l-2.1-7.8h2.4l1.1,5.6l1.3-5.6h2.5l1.3,5.6l1.1-5.6
		C206.6,13,208.8,13,208.8,13z"/>
</g>
<g>
	<path class="st1" d="M179.6,30.3c0.6,0.6,0.9,1.4,0.9,2.5v4.6h-2.4V33c0-0.5-0.1-0.9-0.4-1.2c-0.3-0.3-0.6-0.4-1.1-0.4
		s-0.8,0.1-1.1,0.4c-0.3,0.3-0.4,0.7-0.4,1.2v4.2h-2.4V33c0-0.5-0.1-0.9-0.4-1.2c-0.3-0.3-0.6-0.4-1.1-0.4s-0.8,0.1-1.1,0.4
		c-0.3,0.3-0.4,0.7-0.4,1.2v4.2h-2.4v-7.8h2.4v1c0.2-0.3,0.6-0.6,0.9-0.8s0.8-0.3,1.3-0.3c0.6,0,1.1,0.1,1.6,0.4s0.8,0.6,1.1,1.1
		c0.3-0.4,0.6-0.8,1.1-1c0.5-0.3,1-0.4,1.5-0.4C178.3,29.4,179.1,29.7,179.6,30.3z"/>
	<path class="st1" d="M183.7,36.9c-0.6-0.3-1.1-0.8-1.4-1.4s-0.5-1.3-0.5-2.1c0-0.8,0.2-1.5,0.5-2.1s0.8-1.1,1.5-1.4
		c0.6-0.3,1.3-0.5,2.1-0.5c0.8,0,1.5,0.2,2.1,0.5c0.6,0.3,1.1,0.8,1.5,1.4c0.4,0.6,0.5,1.3,0.5,2.1s-0.2,1.5-0.5,2.1
		s-0.9,1.1-1.5,1.4s-1.3,0.5-2.1,0.5S184.3,37.2,183.7,36.9z M186.9,34.8c0.3-0.3,0.5-0.8,0.5-1.4c0-0.6-0.2-1.1-0.5-1.4
		c-0.3-0.3-0.7-0.5-1.2-0.5c-0.5,0-0.9,0.2-1.2,0.5s-0.5,0.8-0.5,1.4c0,0.6,0.1,1.1,0.5,1.4c0.3,0.3,0.7,0.5,1.1,0.5
		S186.6,35.2,186.9,34.8z"/>
	<path class="st1" d="M191.1,31.2c0.3-0.6,0.7-1.1,1.2-1.4s1.1-0.5,1.8-0.5c0.5,0,1,0.1,1.4,0.3s0.8,0.5,1,0.9v-3.6h2.4v10.4h-2.4
		v-1.1c-0.2,0.4-0.5,0.7-1,0.9c-0.4,0.2-0.9,0.3-1.4,0.3c-0.6,0-1.2-0.2-1.8-0.5s-0.9-0.8-1.2-1.4s-0.5-1.3-0.5-2.1
		S190.8,31.9,191.1,31.2z M196,32c-0.3-0.3-0.7-0.5-1.2-0.5c-0.5,0-0.9,0.2-1.2,0.5c-0.3,0.3-0.5,0.8-0.5,1.4s0.2,1.1,0.5,1.4
		s0.7,0.5,1.2,0.5c0.5,0,0.9-0.2,1.2-0.5c0.3-0.3,0.5-0.8,0.5-1.4C196.5,32.8,196.3,32.3,196,32z"/>
	<path class="st1" d="M207.9,33.9h-5.4c0,0.5,0.2,0.9,0.5,1.1s0.6,0.4,1,0.4c0.6,0,1-0.3,1.3-0.8h2.6c-0.1,0.5-0.4,1-0.7,1.4
		c-0.3,0.4-0.8,0.7-1.3,1c-0.5,0.2-1.1,0.3-1.7,0.3c-0.8,0-1.4-0.2-2-0.5s-1.1-0.8-1.4-1.4s-0.5-1.3-0.5-2.1s0.2-1.5,0.5-2.1
		s0.8-1.1,1.4-1.4c0.6-0.3,1.3-0.5,2.1-0.5c0.8,0,1.4,0.2,2,0.5c0.6,0.3,1.1,0.8,1.4,1.4s0.5,1.3,0.5,2.1
		C208,33.5,207.9,33.7,207.9,33.9z M205.5,32.6c0-0.4-0.1-0.7-0.4-1s-0.6-0.4-1.1-0.4c-0.4,0-0.7,0.1-1,0.4s-0.4,0.6-0.5,1H205.5z"
		/>
	<path class="st1" d="M210.6,37c-0.5-0.2-0.9-0.5-1.3-1s-0.5-0.9-0.5-1.4h2.4c0,0.3,0.1,0.5,0.4,0.7c0.2,0.2,0.5,0.3,0.8,0.3
		c0.3,0,0.5-0.1,0.7-0.2c0.2-0.1,0.3-0.3,0.3-0.5c0-0.2-0.1-0.4-0.4-0.5c-0.2-0.1-0.6-0.2-1.1-0.4c-0.6-0.1-1-0.3-1.4-0.4
		s-0.7-0.4-1-0.7c-0.3-0.3-0.4-0.7-0.4-1.3c0-0.5,0.1-0.9,0.4-1.2c0.3-0.4,0.6-0.7,1.1-0.9s1.1-0.3,1.7-0.3c1,0,1.8,0.2,2.3,0.7
		c0.6,0.5,0.9,1.1,1,1.9h-2.2c0-0.3-0.2-0.5-0.4-0.6c-0.2-0.2-0.5-0.2-0.8-0.2c-0.3,0-0.5,0-0.6,0.2s-0.2,0.3-0.2,0.4
		c0,0.2,0.1,0.4,0.4,0.5s0.6,0.2,1.1,0.3c0.6,0.2,1.1,0.3,1.4,0.4s0.7,0.4,1,0.7c0.3,0.3,0.4,0.8,0.4,1.3c0,0.5-0.1,0.9-0.4,1.2
		s-0.6,0.6-1.1,0.8s-1,0.3-1.7,0.3C211.7,37.4,211.1,37.3,210.6,37z"/>
</g>
<path class="st3" d="M160.5,65.6L160.5,65.6c0-5.7,4.6-10.3,10.3-10.3h41.1c2.7,0,5.3,1.1,7.3,3c1.9,1.9,3,4.5,3,7.3v184.2
	c0,5.7-4.6,10.3-10.3,10.3h-41.1c-5.7,0-10.3-4.6-10.3-10.3L160.5,65.6L160.5,65.6z"/>
<g>
	<path class="st1" d="M179.9,144.8v1.9h-4v2.1h3v1.9h-3v4h-2.4v-9.8H179.9z"/>
	<path class="st1" d="M182.6,154.2c-0.6-0.3-1.1-0.8-1.4-1.4s-0.5-1.3-0.5-2.1c0-0.8,0.2-1.5,0.5-2.1s0.8-1.1,1.5-1.4
		c0.6-0.3,1.3-0.5,2.1-0.5c0.8,0,1.5,0.2,2.1,0.5c0.6,0.3,1.1,0.8,1.5,1.4c0.4,0.6,0.5,1.3,0.5,2.1s-0.2,1.5-0.5,2.1
		s-0.9,1.1-1.5,1.4s-1.3,0.5-2.1,0.5S183.3,154.6,182.6,154.2z M185.9,152.1c0.3-0.3,0.5-0.8,0.5-1.4c0-0.6-0.2-1.1-0.5-1.4
		c-0.3-0.3-0.7-0.5-1.2-0.5c-0.5,0-0.9,0.2-1.2,0.5s-0.5,0.8-0.5,1.4c0,0.6,0.1,1.1,0.5,1.4c0.3,0.3,0.7,0.5,1.1,0.5
		S185.6,152.5,185.9,152.1z"/>
	<path class="st1" d="M193.5,147.1c0.4-0.3,0.9-0.4,1.4-0.4v2.5h-0.7c-0.6,0-1,0.1-1.3,0.4s-0.4,0.7-0.4,1.4v3.6h-2.4v-7.8h2.4v1.3
		C192.7,147.7,193.1,147.3,193.5,147.1z"/>
	<path class="st1" d="M208.3,147.6c0.6,0.6,0.9,1.4,0.9,2.4v4.6h-2.4v-4.2c0-0.5-0.1-0.9-0.4-1.2c-0.3-0.3-0.6-0.4-1.1-0.4
		s-0.8,0.1-1.1,0.4s-0.4,0.7-0.4,1.2v4.2h-2.4v-4.2c0-0.5-0.1-0.9-0.4-1.2c-0.3-0.3-0.6-0.4-1.1-0.4s-0.8,0.1-1.1,0.4
		c-0.3,0.3-0.4,0.7-0.4,1.2v4.2H196v-7.8h2.4v1c0.2-0.3,0.6-0.6,0.9-0.8s0.8-0.3,1.3-0.3c0.6,0,1.1,0.1,1.6,0.4s0.8,0.6,1.1,1.1
		c0.3-0.4,0.6-0.8,1.1-1.1s1-0.4,1.5-0.4C207,146.7,207.8,147,208.3,147.6z"/>
</g>
<g>
	<path class="st1" d="M179.6,164.1c0.6,0.6,0.9,1.4,0.9,2.4v4.6h-2.4v-4.2c0-0.5-0.1-0.9-0.4-1.2c-0.3-0.3-0.6-0.4-1.1-0.4
		s-0.8,0.1-1.1,0.4s-0.4,0.7-0.4,1.2v4.2h-2.4v-4.2c0-0.5-0.1-0.9-0.4-1.2c-0.3-0.3-0.6-0.4-1.1-0.4s-0.8,0.1-1.1,0.4
		c-0.3,0.3-0.4,0.7-0.4,1.2v4.2h-2.4v-7.8h2.4v1c0.2-0.3,0.6-0.6,0.9-0.8s0.8-0.3,1.3-0.3c0.6,0,1.1,0.1,1.6,0.4s0.8,0.6,1.1,1.1
		c0.3-0.4,0.6-0.8,1.1-1.1s1-0.4,1.5-0.4C178.3,163.2,179.1,163.5,179.6,164.1z"/>
	<path class="st1" d="M183.7,170.7c-0.6-0.3-1.1-0.8-1.4-1.4s-0.5-1.3-0.5-2.1c0-0.8,0.2-1.5,0.5-2.1s0.8-1.1,1.5-1.4
		c0.6-0.3,1.3-0.5,2.1-0.5c0.8,0,1.5,0.2,2.1,0.5c0.6,0.3,1.1,0.8,1.5,1.4c0.4,0.6,0.5,1.3,0.5,2.1s-0.2,1.5-0.5,2.1
		s-0.9,1.1-1.5,1.4s-1.3,0.5-2.1,0.5S184.3,171.1,183.7,170.7z M186.9,168.6c0.3-0.3,0.5-0.8,0.5-1.4c0-0.6-0.2-1.1-0.5-1.4
		c-0.3-0.3-0.7-0.5-1.2-0.5c-0.5,0-0.9,0.2-1.2,0.5s-0.5,0.8-0.5,1.4c0,0.6,0.1,1.1,0.5,1.4c0.3,0.3,0.7,0.5,1.1,0.5
		S186.6,169,186.9,168.6z"/>
	<path class="st1" d="M191.1,165.1c0.3-0.6,0.7-1.1,1.2-1.4c0.5-0.3,1.1-0.5,1.8-0.5c0.5,0,1,0.1,1.4,0.3s0.8,0.5,1,0.9v-3.6h2.4
		v10.4h-2.4V170c-0.2,0.4-0.5,0.7-1,0.9c-0.4,0.2-0.9,0.3-1.4,0.3c-0.6,0-1.2-0.2-1.8-0.5s-0.9-0.8-1.2-1.4s-0.5-1.3-0.5-2.1
		S190.8,165.7,191.1,165.1z M196,165.8c-0.3-0.3-0.7-0.5-1.2-0.5c-0.5,0-0.9,0.2-1.2,0.5s-0.5,0.8-0.5,1.4s0.2,1.1,0.5,1.4
		c0.3,0.4,0.7,0.5,1.2,0.5c0.5,0,0.9-0.2,1.2-0.5c0.3-0.3,0.5-0.8,0.5-1.4C196.5,166.6,196.3,166.1,196,165.8z"/>
	<path class="st1" d="M207.9,167.8h-5.4c0,0.5,0.2,0.9,0.5,1.1s0.6,0.4,1,0.4c0.6,0,1-0.3,1.3-0.8h2.6c-0.1,0.5-0.4,1-0.7,1.4
		c-0.3,0.4-0.8,0.7-1.3,1c-0.5,0.2-1.1,0.4-1.7,0.4c-0.8,0-1.4-0.2-2-0.5s-1.1-0.8-1.4-1.4s-0.5-1.3-0.5-2.1s0.2-1.5,0.5-2.1
		s0.8-1.1,1.4-1.4c0.6-0.3,1.3-0.5,2.1-0.5c0.8,0,1.4,0.2,2,0.5c0.6,0.3,1.1,0.8,1.4,1.4s0.5,1.3,0.5,2.1
		C208,167.3,207.9,167.5,207.9,167.8z M205.5,166.4c0-0.4-0.1-0.7-0.4-1c-0.3-0.2-0.6-0.4-1.1-0.4c-0.4,0-0.7,0.1-1,0.4
		s-0.4,0.6-0.5,1L205.5,166.4L205.5,166.4z"/>
	<path class="st1" d="M210.6,170.9c-0.5-0.2-0.9-0.6-1.3-1s-0.5-0.9-0.5-1.4h2.4c0,0.3,0.1,0.5,0.4,0.7c0.2,0.2,0.5,0.3,0.8,0.3
		c0.3,0,0.5-0.1,0.7-0.2c0.2-0.1,0.3-0.3,0.3-0.5c0-0.2-0.1-0.4-0.4-0.5c-0.2-0.1-0.6-0.2-1.1-0.4c-0.6-0.1-1-0.3-1.4-0.4
		s-0.7-0.4-1-0.7c-0.3-0.3-0.4-0.7-0.4-1.3c0-0.4,0.1-0.9,0.4-1.2c0.3-0.4,0.6-0.7,1.1-0.9s1.1-0.3,1.7-0.3c1,0,1.8,0.2,2.3,0.7
		c0.6,0.5,0.9,1.1,1,1.9h-2.2c0-0.3-0.2-0.5-0.4-0.6c-0.2-0.2-0.5-0.2-0.8-0.2c-0.3,0-0.5,0.1-0.6,0.2s-0.2,0.3-0.2,0.4
		c0,0.2,0.1,0.4,0.4,0.5s0.6,0.2,1.1,0.3c0.6,0.1,1.1,0.3,1.4,0.4s0.7,0.4,1,0.7c0.3,0.3,0.4,0.8,0.4,1.3c0,0.5-0.1,0.9-0.4,1.2
		s-0.6,0.6-1.1,0.9s-1,0.3-1.7,0.3C211.7,171.2,211.1,171.1,210.6,170.9z"/>
</g>
<path class="st3" d="M228.1,59.2L228.1,59.2c0-2.2,1.7-3.9,3.9-3.9h15.6c1,0,2,0.4,2.8,1.1s1.1,1.7,1.1,2.8v15.6
	c0,2.2-1.7,3.9-3.9,3.9H232c-2.1,0-3.9-1.7-3.9-3.9V59.2z"/>
<g>
	<path class="st1" d="M237.2,63.4v-2.5h4.4v11.7h-2.9v-9.1L237.2,63.4L237.2,63.4z"/>
</g>
<path class="st3" d="M228.1,111L228.1,111c0-2.2,1.7-3.9,3.9-3.9h15.6c1,0,2,0.4,2.8,1.1c0.7,0.7,1.1,1.7,1.1,2.8v15.6
	c0,2.2-1.7,3.9-3.9,3.9H232c-2.1,0-3.9-1.7-3.9-3.9V111z"/>
<g>
	<path class="st1" d="M236.9,113.4c0.7-0.6,1.7-0.9,2.9-0.9c0.8,0,1.5,0.1,2.1,0.4c0.6,0.3,1,0.7,1.3,1.1c0.3,0.5,0.4,1,0.4,1.6
		c0,0.7-0.2,1.3-0.5,1.7s-0.8,0.7-1.2,0.9v0.1c0.6,0.2,1.1,0.5,1.4,1s0.5,1.1,0.5,1.8c0,0.7-0.1,1.3-0.5,1.8
		c-0.3,0.5-0.8,0.9-1.3,1.2s-1.3,0.4-2.1,0.4c-1.3,0-2.3-0.3-3.1-0.9c-0.8-0.6-1.2-1.6-1.2-2.8h2.7c0,0.5,0.1,0.8,0.4,1.1
		c0.3,0.3,0.6,0.4,1.1,0.4c0.4,0,0.7-0.1,1-0.4s0.3-0.6,0.3-0.9c0-0.5-0.2-0.9-0.5-1.1s-0.9-0.3-1.6-0.3h-0.5v-2.2h0.5
		c0.5,0,1-0.1,1.3-0.3s0.5-0.5,0.5-1c0-0.4-0.1-0.7-0.3-0.9c-0.2-0.2-0.5-0.3-0.9-0.3c-0.4,0-0.7,0.1-0.9,0.4s-0.3,0.6-0.3,0.9h-2.7
		C235.8,114.9,236.2,114,236.9,113.4z"/>
</g>
<path class="st3" d="M228.1,85.1L228.1,85.1c0-2.2,1.7-3.9,3.9-3.9h15.6c1,0,2,0.4,2.8,1.1c0.7,0.7,1.1,1.7,1.1,2.8v15.6
	c0,2.2-1.7,3.9-3.9,3.9H232c-2.1,0-3.9-1.7-3.9-3.9V85.1z"/>
<g>
	<path class="st1" d="M236.3,95.9c1-0.9,1.9-1.6,2.5-2.1s1.1-1.1,1.5-1.7c0.4-0.6,0.6-1.2,0.6-1.8c0-0.4-0.1-0.8-0.3-1
		c-0.2-0.3-0.5-0.4-0.9-0.4c-0.4,0-0.7,0.2-0.9,0.5c-0.2,0.3-0.3,0.7-0.3,1.3h-2.6c0-0.9,0.2-1.7,0.6-2.3c0.4-0.6,0.9-1.1,1.5-1.3
		s1.3-0.4,2-0.4c1.3,0,2.2,0.3,2.9,1s1,1.5,1,2.5c0,1.1-0.4,2.2-1.2,3.2s-1.8,1.9-3,2.9h4.3v2.2h-8v-2.1
		C236.2,96,236.4,95.9,236.3,95.9z"/>
</g>
<path class="st3" d="M228.1,136.9L228.1,136.9c0-2.1,1.7-3.9,3.9-3.9h15.6c1,0,2,0.4,2.8,1.1s1.1,1.7,1.1,2.8v15.6
	c0,2.1-1.7,3.9-3.9,3.9H232c-2.1,0-3.9-1.7-3.9-3.9V136.9z"/>
<g>
	<path class="st1" d="M235.1,148.2V146l5.1-7.2h3.1v7.1h1.3v2.4h-1.3v2.1h-2.7v-2.1H235.1z M240.7,141.8l-2.7,4.1h2.7V141.8z"/>
</g>
<path class="st3" d="M228.1,162.8L228.1,162.8c0-2.1,1.7-3.9,3.9-3.9h15.6c1,0,2,0.4,2.8,1.1s1.1,1.7,1.1,2.8v15.6
	c0,2.1-1.7,3.9-3.9,3.9H232c-2.1,0-3.9-1.7-3.9-3.9V162.8z"/>
<g>
	<path class="st1" d="M243.5,166.9h-5v2.2c0.2-0.2,0.5-0.4,0.9-0.6c0.4-0.1,0.8-0.2,1.3-0.2c0.8,0,1.5,0.2,2,0.5s0.9,0.8,1.2,1.4
		c0.3,0.6,0.4,1.2,0.4,1.9c0,1.3-0.4,2.2-1.1,3c-0.7,0.7-1.7,1.1-3,1.1c-0.9,0-1.6-0.1-2.2-0.4c-0.6-0.3-1.1-0.7-1.5-1.2
		c-0.3-0.5-0.5-1.1-0.6-1.8h2.7c0.1,0.3,0.2,0.6,0.5,0.8c0.3,0.2,0.6,0.3,1,0.3c0.5,0,0.9-0.2,1.1-0.5c0.3-0.3,0.4-0.8,0.4-1.3
		c0-0.5-0.1-0.9-0.4-1.2s-0.6-0.4-1.1-0.4c-0.4,0-0.7,0.1-0.9,0.3c-0.2,0.2-0.4,0.4-0.5,0.7h-2.6v-7h7.5L243.5,166.9L243.5,166.9z"
		/>
</g>
<path class="st2" d="M234.5,5.2L234.5,5.2c0-2.9,2.4-5.3,5.3-5.3c1.4,0,2.7,0.6,3.7,1.5s1.5,2.3,1.5,3.7c0,2.9-2.4,5.3-5.3,5.3
	S234.5,8.1,234.5,5.2z"/>
<path class="st2" d="M234.5,42.5L234.5,42.5c0-2.9,2.4-5.3,5.3-5.3c1.4,0,2.7,0.5,3.7,1.5s1.5,2.3,1.5,3.7c0,2.9-2.4,5.3-5.3,5.3
	S234.5,45.4,234.5,42.5z"/>
<path class="st2" d="M234.5,29.3L234.5,29.3c0-2.9,2.4-5.3,5.3-5.3c1.4,0,2.7,0.5,3.7,1.5s1.5,2.3,1.5,3.7c0,2.9-2.4,5.3-5.3,5.3
	S234.5,32.2,234.5,29.3z"/>
<path class="st2" d="M234.5,17.2L234.5,17.2c0-2.9,2.4-5.3,5.3-5.3c1.4,0,2.7,0.6,3.7,1.5s1.5,2.3,1.5,3.7c0,2.9-2.4,5.3-5.3,5.3
	S234.5,20.1,234.5,17.2z"/>
<path class="st3" d="M228.1,188.8L228.1,188.8c0-2.1,1.7-3.9,3.9-3.9h15.6c1,0,2,0.4,2.8,1.1s1.1,1.7,1.1,2.8v15.6
	c0,2.1-1.7,3.9-3.9,3.9H232c-2.1,0-3.9-1.7-3.9-3.9V188.8z"/>
<g>
	<path class="st1" d="M240.7,192.7c-0.2-0.2-0.5-0.3-0.9-0.3c-0.6,0-1,0.3-1.3,0.8s-0.4,1.4-0.4,2.5c0.2-0.4,0.6-0.7,1-0.9
		c0.4-0.2,0.9-0.3,1.5-0.3c1.1,0,1.9,0.3,2.5,1s0.9,1.6,0.9,2.8c0,0.8-0.2,1.5-0.5,2.1s-0.8,1-1.4,1.4c-0.6,0.3-1.3,0.5-2.1,0.5
		c-1.6,0-2.8-0.5-3.4-1.5s-1-2.5-1-4.4c0-2,0.3-3.5,1-4.5c0.7-1,1.8-1.5,3.3-1.5c0.8,0,1.5,0.2,2,0.5c0.6,0.3,1,0.7,1.3,1.2
		c0.3,0.5,0.4,1.1,0.5,1.7h-2.5C241.1,193.2,240.9,192.9,240.7,192.7z M238.8,197.1c-0.3,0.3-0.5,0.7-0.5,1.2c0,0.5,0.1,0.9,0.4,1.2
		s0.7,0.4,1.2,0.4c0.5,0,0.8-0.1,1.1-0.4s0.4-0.7,0.4-1.2c0-0.5-0.1-0.9-0.4-1.2c-0.3-0.3-0.6-0.4-1.1-0.4
		C239.5,196.7,239.1,196.8,238.8,197.1z"/>
</g>
<path class="st3" d="M228.1,240.6L228.1,240.6c0-2.1,1.7-3.9,3.9-3.9h15.6c1,0,2,0.4,2.8,1.1s1.1,1.7,1.1,2.8v15.6
	c0,2.1-1.7,3.9-3.9,3.9H232c-2.1,0-3.9-1.7-3.9-3.9V240.6z"/>
<g>
	<path class="st1" d="M235.7,245.2c0-0.6,0.1-1.1,0.4-1.6c0.3-0.5,0.8-0.9,1.4-1.1c0.6-0.3,1.4-0.4,2.2-0.4s1.6,0.1,2.2,0.4
		c0.6,0.3,1.1,0.7,1.4,1.1s0.4,1,0.4,1.6s-0.1,1.1-0.4,1.5c-0.3,0.4-0.6,0.8-1.1,1c0.6,0.3,1,0.7,1.3,1.1s0.5,1.1,0.5,1.7
		c0,0.8-0.2,1.4-0.6,2s-0.9,1-1.6,1.3s-1.4,0.4-2.2,0.4c-0.8,0-1.5-0.1-2.2-0.4s-1.2-0.7-1.6-1.3c-0.4-0.6-0.6-1.2-0.6-2
		c0-0.7,0.1-1.2,0.5-1.7s0.8-0.9,1.3-1.1C236.2,247.1,235.7,246.3,235.7,245.2z M238.6,249.3c-0.3,0.3-0.5,0.6-0.5,1.1
		c0,0.4,0.1,0.8,0.5,1.1s0.7,0.4,1.2,0.4s0.9-0.1,1.2-0.4c0.3-0.3,0.4-0.7,0.4-1.1c0-0.5-0.1-0.8-0.5-1.1s-0.7-0.4-1.2-0.4
		C239.3,248.9,238.9,249,238.6,249.3z M240.8,244.6c-0.3-0.2-0.6-0.4-1-0.4s-0.8,0.1-1,0.4s-0.4,0.6-0.4,1c0,0.4,0.1,0.7,0.4,1
		c0.3,0.2,0.6,0.4,1,0.4s0.7-0.1,1-0.4s0.4-0.6,0.4-1C241.2,245.1,241,244.8,240.8,244.6z"/>
</g>
<path class="st3" d="M228.1,214.7L228.1,214.7c0-2.1,1.7-3.9,3.9-3.9h15.6c1,0,2,0.4,2.8,1.1s1.1,1.7,1.1,2.8v15.6
	c0,2.1-1.7,3.9-3.9,3.9H232c-2.1,0-3.9-1.7-3.9-3.9V214.7z"/>
<g>
	<path class="st1" d="M243.7,218.4l-4,9.6h-2.8l4.1-9.3h-5v-2.3h7.7L243.7,218.4L243.7,218.4z"/>
</g>
<g>
	<path class="st1" d="M580.2,112.7v2.5H575v2.7h3.8v2.4H575v5.1h-3.1v-12.6L580.2,112.7L580.2,112.7z"/>
	<path class="st1" d="M583.7,124.9c-0.8-0.4-1.4-1-1.8-1.8c-0.5-0.8-0.7-1.7-0.7-2.7c0-1,0.2-1.9,0.7-2.7s1.1-1.4,1.9-1.8
		s1.7-0.6,2.7-0.6s1.9,0.2,2.7,0.6s1.4,1,1.9,1.8c0.5,0.8,0.7,1.7,0.7,2.7c0,1-0.2,1.9-0.7,2.7s-1.1,1.4-1.9,1.8s-1.7,0.6-2.7,0.6
		S584.5,125.3,583.7,124.9z M587.8,122.2c0.4-0.4,0.6-1.1,0.6-1.8c0-0.8-0.2-1.4-0.6-1.8s-0.9-0.7-1.5-0.7c-0.6,0-1.1,0.2-1.5,0.6
		s-0.6,1.1-0.6,1.9c0,0.8,0.2,1.4,0.6,1.8c0.4,0.4,0.9,0.7,1.5,0.7C586.9,122.8,587.4,122.6,587.8,122.2z"/>
	<path class="st1" d="M597.7,115.7c0.5-0.3,1.1-0.5,1.8-0.5v3.3h-0.8c-0.8,0-1.3,0.2-1.7,0.5c-0.4,0.3-0.6,0.9-0.6,1.7v4.7h-3.1v-10
		h3.1v1.7C596.7,116.4,597.1,116,597.7,115.7z"/>
	<path class="st1" d="M616.7,116.3c0.7,0.8,1.1,1.8,1.1,3.2v5.9h-3.1v-5.4c0-0.7-0.2-1.2-0.5-1.5s-0.8-0.5-1.4-0.5s-1.1,0.2-1.4,0.5
		c-0.3,0.3-0.5,0.9-0.5,1.5v5.4h-3.1v-5.4c0-0.7-0.2-1.2-0.5-1.5s-0.8-0.5-1.4-0.5s-1.1,0.2-1.4,0.5c-0.3,0.3-0.5,0.9-0.5,1.5v5.4
		H601v-10h3.1v1.3c0.3-0.4,0.7-0.8,1.2-1s1.1-0.4,1.7-0.4c0.8,0,1.4,0.2,2,0.5c0.6,0.3,1.1,0.8,1.4,1.4c0.3-0.6,0.8-1,1.4-1.3
		s1.3-0.5,2-0.5C615,115.2,616,115.6,616.7,116.3z"/>
	<path class="st1" d="M621.8,125.1c-0.7-0.3-1.2-0.7-1.6-1.2c-0.4-0.5-0.6-1.1-0.7-1.8h3c0,0.3,0.2,0.6,0.5,0.8s0.6,0.3,1.1,0.3
		c0.4,0,0.7-0.1,0.9-0.2c0.2-0.2,0.3-0.3,0.3-0.6c0-0.3-0.2-0.5-0.5-0.6s-0.8-0.3-1.5-0.5c-0.7-0.2-1.3-0.3-1.8-0.5
		s-0.9-0.5-1.2-0.9c-0.3-0.4-0.5-0.9-0.5-1.6c0-0.6,0.2-1.1,0.5-1.6c0.3-0.5,0.8-0.8,1.4-1.1c0.6-0.3,1.3-0.4,2.2-0.4
		c1.3,0,2.3,0.3,3,0.9c0.7,0.6,1.1,1.4,1.3,2.5h-2.8c0-0.3-0.2-0.6-0.5-0.8s-0.6-0.3-1-0.3c-0.4,0-0.6,0.1-0.8,0.2s-0.3,0.3-0.3,0.6
		c0,0.3,0.2,0.5,0.5,0.7c0.3,0.1,0.8,0.3,1.4,0.4c0.7,0.2,1.3,0.4,1.8,0.6c0.5,0.2,0.9,0.5,1.2,0.9s0.5,1,0.5,1.7
		c0,0.6-0.2,1.1-0.5,1.6c-0.3,0.5-0.8,0.8-1.4,1.1c-0.6,0.3-1.3,0.4-2.2,0.4C623.2,125.5,622.4,125.4,621.8,125.1z"/>
</g>
<g>
	<path class="st1" d="M577.2,146.8c-0.7-0.3-1.3-0.7-1.8-1.3s-0.7-1.3-0.7-2.1h3.3c0,0.5,0.2,0.8,0.5,1.1c0.3,0.3,0.6,0.4,1.1,0.4
		c0.5,0,0.8-0.1,1.1-0.3s0.4-0.5,0.4-0.9c0-0.3-0.1-0.6-0.3-0.8c-0.2-0.2-0.5-0.4-0.8-0.5c-0.3-0.1-0.7-0.3-1.3-0.4
		c-0.8-0.3-1.5-0.5-2-0.8c-0.5-0.3-1-0.6-1.3-1.1c-0.4-0.5-0.6-1.1-0.6-1.9c0-1.2,0.4-2.1,1.3-2.8s2-1,3.3-1c1.4,0,2.5,0.3,3.4,1
		c0.8,0.7,1.3,1.6,1.4,2.8h-3.3c0-0.4-0.2-0.7-0.5-1c-0.3-0.2-0.6-0.4-1.1-0.4c-0.4,0-0.7,0.1-0.9,0.3c-0.2,0.2-0.3,0.5-0.3,0.9
		c0,0.4,0.2,0.7,0.6,0.9c0.4,0.2,1,0.5,1.8,0.7c0.8,0.3,1.5,0.5,2,0.8s1,0.6,1.3,1.1c0.4,0.5,0.6,1.1,0.6,1.9c0,0.7-0.2,1.4-0.5,2
		c-0.4,0.6-0.9,1.1-1.6,1.4c-0.7,0.4-1.5,0.5-2.5,0.5C578.8,147.3,578,147.1,577.2,146.8z"/>
	<path class="st1" d="M591.8,144.5v2.6h-1.6c-1.1,0-2-0.3-2.6-0.8c-0.6-0.6-0.9-1.4-0.9-2.7v-4h-1.2v-2.6h1.2v-2.4h3.1v2.4h2v2.6h-2
		v4c0,0.3,0.1,0.5,0.2,0.6s0.4,0.2,0.7,0.2L591.8,144.5L591.8,144.5z"/>
	<path class="st1" d="M602.9,142.8h-7c0,0.6,0.3,1.1,0.6,1.4s0.8,0.5,1.3,0.5c0.8,0,1.3-0.3,1.6-1h3.3c-0.2,0.7-0.5,1.3-0.9,1.8
		s-1,0.9-1.7,1.2s-1.4,0.4-2.2,0.4c-1,0-1.9-0.2-2.6-0.6s-1.4-1-1.8-1.8s-0.7-1.7-0.7-2.7c0-1,0.2-2,0.6-2.7s1-1.4,1.8-1.8
		s1.7-0.6,2.7-0.6c1,0,1.8,0.2,2.6,0.6c0.8,0.4,1.3,1,1.8,1.8c0.4,0.8,0.6,1.6,0.6,2.6C603,142.2,603,142.5,602.9,142.8z
		 M599.8,141.1c0-0.5-0.2-0.9-0.5-1.3s-0.8-0.5-1.3-0.5c-0.5,0-1,0.1-1.3,0.4s-0.6,0.7-0.7,1.3H599.8z"/>
	<path class="st1" d="M608.9,137.4c0.5-0.3,1.2-0.4,1.8-0.4c0.8,0,1.6,0.2,2.3,0.6s1.2,1,1.6,1.8s0.6,1.7,0.6,2.7s-0.2,1.9-0.6,2.7
		c-0.4,0.8-0.9,1.4-1.6,1.8s-1.4,0.6-2.3,0.6c-0.7,0-1.3-0.1-1.8-0.4c-0.5-0.3-1-0.7-1.3-1.1v6.2h-3.1v-14.8h3.1v1.4
		C608,138,608.4,137.6,608.9,137.4z M611.4,140.3c-0.4-0.4-1-0.7-1.6-0.7c-0.6,0-1.1,0.2-1.6,0.7s-0.6,1.1-0.6,1.8s0.2,1.4,0.6,1.8
		s1,0.7,1.6,0.7s1.1-0.2,1.6-0.7s0.7-1.1,0.7-1.8C612.1,141.3,611.8,140.7,611.4,140.3z"/>
	<path class="st1" d="M618.6,146.8c-0.7-0.3-1.2-0.7-1.6-1.2c-0.4-0.5-0.6-1.1-0.7-1.8h3c0,0.4,0.2,0.6,0.5,0.9
		c0.3,0.2,0.6,0.3,1.1,0.3c0.4,0,0.7-0.1,0.9-0.2c0.2-0.1,0.3-0.3,0.3-0.6c0-0.3-0.2-0.5-0.5-0.6s-0.8-0.3-1.5-0.5
		c-0.7-0.2-1.3-0.3-1.8-0.5s-0.9-0.5-1.2-0.9c-0.3-0.4-0.5-0.9-0.5-1.6c0-0.6,0.2-1.1,0.5-1.6c0.3-0.5,0.8-0.9,1.4-1.1
		c0.6-0.3,1.3-0.4,2.2-0.4c1.3,0,2.3,0.3,3,0.9c0.7,0.6,1.1,1.4,1.3,2.5h-2.8c0-0.4-0.2-0.6-0.5-0.8s-0.6-0.3-1-0.3
		c-0.4,0-0.6,0.1-0.8,0.2s-0.3,0.3-0.3,0.6c0,0.3,0.2,0.5,0.5,0.6c0.3,0.1,0.8,0.3,1.4,0.4c0.7,0.2,1.3,0.4,1.8,0.6
		c0.5,0.2,0.9,0.5,1.2,0.9c0.4,0.4,0.5,1,0.5,1.7c0,0.6-0.2,1.1-0.5,1.6s-0.8,0.8-1.4,1.1s-1.3,0.4-2.2,0.4
		C620,147.3,619.2,147.1,618.6,146.8z"/>
</g>
<path class="st0" d="M491.2,11.5L491.2,11.5c0-6.2,5-11.3,11.3-11.3h45.1c3,0,5.8,1.2,8,3.3s3.3,5,3.3,8v237.2
	c0,6.2-5,11.3-11.3,11.3h-45.1c-6.2,0-11.3-5-11.3-11.3L491.2,11.5L491.2,11.5z"/>
<g>
	<path class="st1" d="M508,126.7l-1.8,7h-2.1l-1.1-4.6l-1.2,4.6h-2.1l-1.8-7h1.8l1,5.1l1.3-5.1h1.9l1.2,5.1l1-5.1
		C506.2,126.7,508,126.7,508,126.7z"/>
	<path class="st1" d="M510,133.5c-0.4-0.2-0.8-0.6-1-1s-0.4-0.9-0.4-1.5c0-0.6,0.1-1.1,0.4-1.5c0.3-0.4,0.6-0.8,1-1s0.9-0.4,1.5-0.4
		c0.5,0,1,0.1,1.5,0.4c0.4,0.2,0.8,0.6,1,1s0.4,0.9,0.4,1.5s-0.1,1.1-0.4,1.5c-0.3,0.4-0.6,0.8-1,1s-0.9,0.4-1.5,0.4
		S510.4,133.7,510,133.5z M512.3,132c0.2-0.2,0.3-0.6,0.3-1s-0.1-0.8-0.3-1c-0.2-0.2-0.5-0.4-0.8-0.4c-0.3,0-0.6,0.1-0.8,0.4
		c-0.2,0.2-0.3,0.6-0.3,1c0,0.4,0.1,0.8,0.3,1s0.5,0.4,0.8,0.4C511.8,132.3,512,132.2,512.3,132z"/>
	<path class="st1" d="M517.7,128.4c0.3-0.2,0.6-0.3,1-0.3v1.8h-0.5c-0.4,0-0.8,0.1-1,0.3s-0.3,0.5-0.3,1v2.6h-1.7v-5.6h1.7v0.9
		C517.2,128.8,517.4,128.5,517.7,128.4z"/>
	<path class="st1" d="M523,133.7l-1.7-2.3v2.3h-1.7v-7.4h1.7v4.1l1.7-2.3h2.1l-2.3,2.8l2.3,2.8H523z"/>
	<path class="st1" d="M528.5,129.6h-0.9v4.2h-1.7v-4.2h-0.6v-1.4h0.6V128c0-0.7,0.2-1.2,0.6-1.6c0.4-0.4,1-0.5,1.7-0.5
		c0.1,0,0.2,0,0.3,0v1.4c-0.3,0-0.6,0-0.7,0.1s-0.2,0.3-0.2,0.6v0.1h0.9V129.6z"/>
	<path class="st1" d="M531,126.3v7.4h-1.7v-7.4C529.3,126.3,531,126.3,531,126.3z"/>
	<path class="st1" d="M533.3,133.5c-0.4-0.2-0.8-0.6-1-1s-0.4-0.9-0.4-1.5c0-0.6,0.1-1.1,0.4-1.5s0.6-0.8,1-1s0.9-0.4,1.5-0.4
		s1,0.1,1.5,0.4s0.8,0.6,1,1c0.3,0.4,0.4,0.9,0.4,1.5s-0.1,1.1-0.4,1.5c-0.3,0.4-0.6,0.8-1,1s-0.9,0.4-1.5,0.4
		S533.8,133.7,533.3,133.5z M535.7,132c0.2-0.2,0.3-0.6,0.3-1s-0.1-0.8-0.3-1c-0.2-0.2-0.5-0.4-0.8-0.4s-0.6,0.1-0.8,0.4
		c-0.2,0.2-0.3,0.6-0.3,1c0,0.4,0.1,0.8,0.3,1s0.5,0.4,0.8,0.4S535.4,132.2,535.7,132z"/>
	<path class="st1" d="M546.7,128.1l-1.5,5.6h-1.9l-0.9-3.6l-0.9,3.6h-1.9l-1.5-5.6h1.7l0.8,4l0.9-4h1.8l1,4l0.8-4H546.7z"/>
	<path class="st1" d="M548.3,133.6c-0.4-0.2-0.7-0.4-0.9-0.7c-0.2-0.3-0.3-0.6-0.4-1h1.7c0,0.2,0.1,0.4,0.3,0.5s0.4,0.2,0.6,0.2
		c0.2,0,0.4,0,0.5-0.1c0.1-0.1,0.2-0.2,0.2-0.3c0-0.2-0.1-0.3-0.3-0.4s-0.4-0.2-0.8-0.3c-0.4-0.1-0.7-0.2-1-0.3
		c-0.3-0.1-0.5-0.3-0.7-0.5s-0.3-0.5-0.3-0.9c0-0.3,0.1-0.6,0.3-0.9c0.2-0.3,0.4-0.5,0.8-0.6s0.8-0.2,1.2-0.2c0.7,0,1.3,0.2,1.7,0.5
		s0.6,0.8,0.7,1.4h-1.6c0-0.2-0.1-0.4-0.3-0.5s-0.3-0.2-0.6-0.2c-0.2,0-0.3,0-0.5,0.1c-0.1,0.1-0.2,0.2-0.2,0.3
		c0,0.2,0.1,0.3,0.3,0.4c0.2,0.1,0.4,0.2,0.8,0.2c0.4,0.1,0.8,0.2,1,0.3s0.5,0.3,0.7,0.5c0.2,0.2,0.3,0.5,0.3,0.9
		c0,0.3-0.1,0.6-0.3,0.9s-0.5,0.5-0.8,0.6s-0.7,0.2-1.2,0.2C549.1,133.8,548.7,133.7,548.3,133.6z"/>
</g>
<path class="st3" d="M423.6,143.5L423.6,143.5c0-5.7,4.6-10.3,10.3-10.3h41.1c2.7,0,5.3,1.1,7.3,3c1.9,1.9,3,4.5,3,7.3v106.5
	c0,5.7-4.6,10.3-10.3,10.3h-41.1c-5.7,0-10.3-4.6-10.3-10.3L423.6,143.5L423.6,143.5z"/>
<g>
	<path class="st1" d="M439.3,200.9c-0.5-0.2-0.9-0.5-1.2-0.9s-0.5-0.9-0.5-1.4h2.2c0,0.3,0.1,0.6,0.3,0.7s0.4,0.3,0.7,0.3
		s0.5-0.1,0.7-0.2s0.3-0.3,0.3-0.6c0-0.2-0.1-0.4-0.2-0.5c-0.1-0.1-0.3-0.3-0.5-0.3s-0.5-0.2-0.9-0.3c-0.5-0.2-1-0.3-1.3-0.5
		s-0.6-0.4-0.9-0.7c-0.3-0.3-0.4-0.8-0.4-1.3c0-0.8,0.3-1.4,0.9-1.8s1.3-0.7,2.2-0.7c0.9,0,1.7,0.2,2.2,0.7s0.9,1.1,0.9,1.9h-2.2
		c0-0.3-0.1-0.5-0.3-0.6c-0.2-0.2-0.4-0.2-0.7-0.2c-0.3,0-0.5,0.1-0.6,0.2s-0.2,0.3-0.2,0.6c0,0.3,0.1,0.5,0.4,0.6
		c0.3,0.1,0.7,0.3,1.2,0.5c0.5,0.2,1,0.4,1.3,0.5s0.6,0.4,0.9,0.7c0.3,0.3,0.4,0.7,0.4,1.2c0,0.5-0.1,0.9-0.4,1.3
		c-0.2,0.4-0.6,0.7-1.1,0.9c-0.5,0.2-1,0.4-1.6,0.4C440.3,201.2,439.8,201.1,439.3,200.9z"/>
	<path class="st1" d="M449,199.3v1.7h-1c-0.7,0-1.3-0.2-1.7-0.6c-0.4-0.4-0.6-1-0.6-1.8v-2.7h-0.8v-1.7h0.8v-1.6h2v1.6h1.3v1.7h-1.3
		v2.7c0,0.2,0,0.3,0.1,0.4c0.1,0.1,0.3,0.1,0.5,0.1H449z"/>
	<path class="st1" d="M456.4,198.2h-4.6c0,0.4,0.2,0.7,0.4,0.9c0.2,0.2,0.5,0.3,0.9,0.3c0.5,0,0.9-0.2,1.1-0.6h2.2
		c-0.1,0.4-0.3,0.8-0.6,1.2c-0.3,0.4-0.7,0.6-1.1,0.8s-0.9,0.3-1.5,0.3c-0.7,0-1.2-0.1-1.8-0.4s-0.9-0.7-1.2-1.2s-0.4-1.1-0.4-1.8
		c0-0.7,0.1-1.3,0.4-1.8c0.3-0.5,0.7-0.9,1.2-1.2s1.1-0.4,1.8-0.4c0.6,0,1.2,0.1,1.7,0.4c0.5,0.3,0.9,0.7,1.2,1.2
		c0.3,0.5,0.4,1.1,0.4,1.8C456.5,197.8,456.4,198,456.4,198.2z M454.4,197.1c0-0.4-0.1-0.6-0.4-0.8s-0.5-0.3-0.9-0.3
		c-0.3,0-0.6,0.1-0.9,0.3s-0.4,0.5-0.4,0.9L454.4,197.1L454.4,197.1z"/>
	<path class="st1" d="M460.4,194.6c0.4-0.2,0.8-0.3,1.2-0.3c0.5,0,1,0.1,1.5,0.4s0.8,0.7,1.1,1.2s0.4,1.1,0.4,1.8s-0.1,1.3-0.4,1.8
		c-0.3,0.5-0.6,0.9-1.1,1.2c-0.5,0.3-1,0.4-1.5,0.4c-0.5,0-0.9-0.1-1.2-0.3c-0.4-0.2-0.6-0.4-0.8-0.7v4.1h-2v-9.9h2v0.9
		C459.8,195,460.1,194.8,460.4,194.6z M462.1,196.5c-0.3-0.3-0.6-0.4-1-0.4c-0.4,0-0.8,0.1-1,0.4c-0.3,0.3-0.4,0.7-0.4,1.2
		c0,0.5,0.1,0.9,0.4,1.2c0.3,0.3,0.6,0.4,1,0.4s0.8-0.1,1-0.4c0.3-0.3,0.4-0.7,0.4-1.2C462.5,197.2,462.4,196.8,462.1,196.5z"/>
	<path class="st1" d="M466.9,200.9c-0.5-0.2-0.8-0.5-1.1-0.8c-0.3-0.4-0.4-0.7-0.4-1.2h2c0,0.2,0.1,0.4,0.3,0.6s0.4,0.2,0.7,0.2
		c0.3,0,0.5-0.1,0.6-0.1c0.1-0.1,0.2-0.2,0.2-0.4c0-0.2-0.1-0.3-0.3-0.4c-0.2-0.1-0.5-0.2-1-0.3c-0.5-0.1-0.9-0.2-1.2-0.4
		c-0.3-0.1-0.6-0.3-0.8-0.6c-0.2-0.3-0.4-0.6-0.4-1.1c0-0.4,0.1-0.7,0.3-1.1c0.2-0.3,0.5-0.6,0.9-0.8c0.4-0.2,0.9-0.3,1.5-0.3
		c0.8,0,1.5,0.2,2,0.6s0.8,1,0.8,1.7h-1.9c0-0.2-0.1-0.4-0.3-0.6c-0.2-0.1-0.4-0.2-0.7-0.2c-0.2,0-0.4,0.1-0.5,0.1
		c-0.1,0.1-0.2,0.2-0.2,0.4c0,0.2,0.1,0.3,0.3,0.4c0.2,0.1,0.5,0.2,1,0.3c0.5,0.1,0.9,0.3,1.2,0.4s0.6,0.3,0.8,0.6
		c0.2,0.3,0.4,0.6,0.4,1.1c0,0.4-0.1,0.7-0.3,1.1s-0.5,0.6-1,0.7s-0.9,0.3-1.4,0.3C467.8,201.2,467.3,201.1,466.9,200.9z"/>
</g>
<path class="st4" d="M423.6,10.3L423.6,10.3c0-5.7,4.6-10.3,10.3-10.3h41.1c2.7,0,5.3,1.1,7.3,3c1.9,1.9,3,4.5,3,7.3v106.5
	c0,5.7-4.6,10.3-10.3,10.3h-41.1c-5.7,0-10.3-4.6-10.3-10.3L423.6,10.3L423.6,10.3z"/>
<g>
	<path class="st1" d="M434,56.5c-0.2,0.4-0.6,0.7-1,1s-1,0.4-1.7,0.4H430v3h-2v-8.4h3.3c0.7,0,1.2,0.1,1.7,0.3c0.5,0.2,0.8,0.5,1,1
		s0.4,0.9,0.4,1.4C434.4,55.6,434.3,56.1,434,56.5z M432,55.9c0.2-0.2,0.3-0.4,0.3-0.8s-0.1-0.6-0.3-0.8s-0.5-0.3-0.9-0.3H430v2.1
		h1.1C431.5,56.2,431.8,56.1,432,55.9z"/>
	<path class="st1" d="M438.4,54.4c0.4-0.2,0.8-0.3,1.2-0.3v2.2h-0.6c-0.5,0-0.9,0.1-1.1,0.3c-0.3,0.2-0.4,0.6-0.4,1.2v3.1h-2v-6.7h2
		v1.1C437.8,54.9,438,54.6,438.4,54.4z"/>
	<path class="st1" d="M441.9,60.5c-0.5-0.3-0.9-0.7-1.2-1.2s-0.5-1.1-0.5-1.8s0.1-1.3,0.5-1.8c0.3-0.5,0.7-0.9,1.3-1.2
		s1.1-0.4,1.8-0.4c0.6,0,1.3,0.1,1.8,0.4s0.9,0.7,1.3,1.2c0.3,0.5,0.5,1.1,0.5,1.8s-0.1,1.3-0.5,1.8c-0.3,0.5-0.7,0.9-1.3,1.2
		s-1.1,0.4-1.8,0.4S442.4,60.8,441.9,60.5z M444.6,58.7c0.3-0.3,0.4-0.7,0.4-1.2s-0.1-1-0.4-1.2s-0.6-0.4-1-0.4
		c-0.4,0-0.7,0.1-1,0.4c-0.3,0.3-0.4,0.7-0.4,1.2s0.1,1,0.4,1.2s0.6,0.4,1,0.4C444,59.2,444.4,59,444.6,58.7z"/>
	<path class="st1" d="M452,54.3c0.4,0.2,0.6,0.4,0.8,0.8v-1h2v6.7c0,0.6-0.1,1.2-0.4,1.7s-0.6,0.9-1.1,1.2c-0.5,0.3-1.1,0.4-1.9,0.4
		c-1,0-1.8-0.2-2.4-0.7c-0.6-0.5-1-1.1-1.1-1.9h2c0.1,0.3,0.2,0.5,0.5,0.6c0.2,0.2,0.5,0.2,0.9,0.2c0.4,0,0.8-0.1,1-0.4
		s0.4-0.6,0.4-1.2v-1c-0.2,0.3-0.5,0.6-0.8,0.8c-0.4,0.2-0.8,0.3-1.2,0.3c-0.5,0-1-0.1-1.5-0.4c-0.5-0.3-0.8-0.7-1.1-1.2
		s-0.4-1.1-0.4-1.8s0.1-1.3,0.4-1.8s0.6-0.9,1.1-1.2c0.5-0.3,1-0.4,1.5-0.4C451.3,54,451.7,54.1,452,54.3z M452.4,56.3
		c-0.3-0.3-0.6-0.4-1-0.4s-0.8,0.2-1,0.4c-0.3,0.3-0.4,0.7-0.4,1.2c0,0.5,0.1,0.9,0.4,1.2c0.3,0.3,0.6,0.5,1,0.5s0.8-0.2,1-0.4
		c0.3-0.3,0.4-0.7,0.4-1.2C452.8,57,452.7,56.6,452.4,56.3z"/>
	<path class="st1" d="M459.3,54.4c0.4-0.2,0.8-0.3,1.2-0.3v2.2H460c-0.5,0-0.9,0.1-1.1,0.3c-0.3,0.2-0.4,0.6-0.4,1.2v3.1h-2v-6.7h2
		v1.1C458.7,54.9,459,54.6,459.3,54.4z"/>
	<path class="st1" d="M467.8,58h-4.6c0,0.4,0.2,0.7,0.4,1c0.2,0.2,0.5,0.3,0.9,0.3c0.5,0,0.9-0.2,1.1-0.7h2.2
		c-0.1,0.4-0.3,0.8-0.6,1.2c-0.3,0.3-0.7,0.6-1.1,0.8s-0.9,0.3-1.5,0.3c-0.7,0-1.2-0.1-1.8-0.4s-0.9-0.7-1.2-1.2s-0.4-1.1-0.4-1.8
		c0-0.7,0.1-1.3,0.4-1.8c0.3-0.5,0.7-0.9,1.2-1.2s1.1-0.4,1.8-0.4c0.6,0,1.2,0.1,1.7,0.4c0.5,0.3,0.9,0.7,1.2,1.2
		c0.3,0.5,0.4,1.1,0.4,1.8C467.8,57.6,467.8,57.8,467.8,58z M465.7,56.8c0-0.3-0.1-0.6-0.4-0.8s-0.5-0.3-0.9-0.3
		c-0.3,0-0.6,0.1-0.9,0.3s-0.4,0.5-0.4,0.8C463.2,56.8,465.7,56.8,465.7,56.8z"/>
	<path class="st1" d="M470.1,60.6c-0.5-0.2-0.8-0.5-1.1-0.8c-0.3-0.3-0.4-0.7-0.4-1.2h2c0,0.2,0.1,0.4,0.3,0.6
		c0.2,0.1,0.4,0.2,0.7,0.2c0.3,0,0.5,0,0.6-0.2c0.1-0.1,0.2-0.2,0.2-0.4c0-0.2-0.1-0.3-0.3-0.4c-0.2-0.1-0.5-0.2-1-0.3
		c-0.5-0.1-0.9-0.2-1.2-0.3s-0.6-0.3-0.8-0.6c-0.2-0.3-0.4-0.6-0.4-1.1c0-0.4,0.1-0.7,0.3-1c0.2-0.3,0.5-0.6,0.9-0.8
		c0.4-0.2,0.9-0.3,1.5-0.3c0.8,0,1.5,0.2,2,0.6s0.8,1,0.8,1.7h-1.9c0-0.2-0.1-0.4-0.3-0.5c-0.2-0.1-0.4-0.2-0.7-0.2
		c-0.2,0-0.4,0-0.5,0.1c-0.1,0.1-0.2,0.2-0.2,0.4c0,0.2,0.1,0.3,0.3,0.4c0.2,0.1,0.5,0.2,1,0.3c0.5,0.1,0.9,0.3,1.2,0.4
		s0.6,0.3,0.8,0.6c0.2,0.3,0.4,0.7,0.4,1.1c0,0.4-0.1,0.7-0.3,1c-0.2,0.3-0.5,0.5-1,0.7s-0.9,0.3-1.4,0.3
		C471,60.9,470.5,60.8,470.1,60.6z"/>
	<path class="st1" d="M476.8,60.6c-0.5-0.2-0.8-0.5-1.1-0.8c-0.3-0.3-0.4-0.7-0.5-1.2h2c0,0.2,0.1,0.4,0.3,0.6
		c0.2,0.1,0.4,0.2,0.7,0.2c0.3,0,0.5,0,0.6-0.2c0.1-0.1,0.2-0.2,0.2-0.4c0-0.2-0.1-0.3-0.3-0.4s-0.5-0.2-1-0.3
		c-0.5-0.1-0.9-0.2-1.2-0.3s-0.6-0.3-0.8-0.6s-0.4-0.6-0.4-1.1c0-0.4,0.1-0.7,0.3-1c0.2-0.3,0.5-0.6,0.9-0.8
		c0.4-0.2,0.9-0.3,1.5-0.3c0.8,0,1.5,0.2,2,0.6c0.5,0.4,0.8,1,0.8,1.7h-1.9c0-0.2-0.1-0.4-0.3-0.5c-0.2-0.1-0.4-0.2-0.7-0.2
		c-0.2,0-0.4,0-0.5,0.1c-0.1,0.1-0.2,0.2-0.2,0.4c0,0.2,0.1,0.3,0.3,0.4c0.2,0.1,0.5,0.2,1,0.3c0.5,0.1,0.9,0.3,1.2,0.4
		c0.3,0.1,0.6,0.3,0.8,0.6s0.4,0.7,0.4,1.1c0,0.4-0.1,0.7-0.3,1c-0.2,0.3-0.5,0.5-1,0.7s-0.9,0.3-1.4,0.3
		C477.8,60.9,477.2,60.8,476.8,60.6z"/>
</g>
<g>
	<path class="st1" d="M439.3,74.9c-0.5-0.2-0.9-0.5-1.2-0.9s-0.5-0.9-0.5-1.4h2.2c0,0.3,0.1,0.6,0.3,0.7c0.2,0.2,0.4,0.3,0.7,0.3
		s0.5-0.1,0.7-0.2s0.3-0.3,0.3-0.6c0-0.2-0.1-0.4-0.2-0.5c-0.1-0.1-0.3-0.3-0.5-0.3c-0.2-0.1-0.5-0.2-0.9-0.3
		c-0.5-0.2-1-0.3-1.3-0.5s-0.6-0.4-0.9-0.7s-0.4-0.8-0.4-1.3c0-0.8,0.3-1.4,0.9-1.8s1.3-0.7,2.2-0.7c0.9,0,1.7,0.2,2.2,0.7
		s0.9,1.1,0.9,1.8h-2.2c0-0.3-0.1-0.5-0.3-0.6s-0.4-0.2-0.7-0.2c-0.3,0-0.5,0.1-0.6,0.2s-0.2,0.3-0.2,0.6c0,0.3,0.1,0.5,0.4,0.6
		c0.3,0.2,0.7,0.3,1.2,0.5c0.5,0.2,1,0.4,1.3,0.5c0.3,0.2,0.6,0.4,0.9,0.7s0.4,0.7,0.4,1.2c0,0.5-0.1,0.9-0.4,1.3
		c-0.2,0.4-0.6,0.7-1.1,0.9c-0.5,0.2-1,0.3-1.6,0.3C440.3,75.2,439.8,75.1,439.3,74.9z"/>
	<path class="st1" d="M449,73.4v1.7h-1c-0.7,0-1.3-0.2-1.7-0.6s-0.6-1-0.6-1.8v-2.7h-0.8v-1.7h0.8v-1.6h2v1.6h1.3v1.7h-1.3v2.7
		c0,0.2,0,0.3,0.1,0.4s0.3,0.1,0.5,0.1L449,73.4L449,73.4z"/>
	<path class="st1" d="M456.4,72.2h-4.6c0,0.4,0.2,0.7,0.4,0.9c0.2,0.2,0.5,0.3,0.9,0.3c0.5,0,0.9-0.2,1.1-0.7h2.2
		c-0.1,0.4-0.3,0.8-0.6,1.2c-0.3,0.3-0.7,0.6-1.1,0.8c-0.4,0.2-0.9,0.3-1.5,0.3c-0.7,0-1.2-0.1-1.8-0.4s-0.9-0.7-1.2-1.2
		s-0.4-1.1-0.4-1.8c0-0.7,0.1-1.3,0.4-1.8c0.3-0.5,0.7-0.9,1.2-1.2s1.1-0.4,1.8-0.4c0.6,0,1.2,0.1,1.7,0.4c0.5,0.3,0.9,0.7,1.2,1.2
		s0.4,1.1,0.4,1.8C456.5,71.8,456.4,72,456.4,72.2z M454.4,71.1c0-0.3-0.1-0.6-0.4-0.8s-0.5-0.3-0.9-0.3c-0.4,0-0.6,0.1-0.9,0.3
		s-0.4,0.5-0.4,0.8C451.8,71.1,454.4,71.1,454.4,71.1z"/>
	<path class="st1" d="M460.4,68.6c0.4-0.2,0.8-0.3,1.2-0.3c0.5,0,1,0.1,1.5,0.4s0.8,0.7,1.1,1.2s0.4,1.1,0.4,1.8
		c0,0.7-0.1,1.3-0.4,1.8c-0.3,0.5-0.6,0.9-1.1,1.2s-1,0.4-1.5,0.4c-0.5,0-0.9-0.1-1.2-0.3c-0.4-0.2-0.6-0.4-0.8-0.7v4.1h-2v-9.9h2
		v0.9C459.8,69,460.1,68.8,460.4,68.6z M462.1,70.5c-0.3-0.3-0.6-0.4-1-0.4c-0.4,0-0.8,0.2-1,0.4c-0.3,0.3-0.4,0.7-0.4,1.2
		s0.1,0.9,0.4,1.2c0.3,0.3,0.6,0.4,1,0.4s0.8-0.2,1-0.4c0.3-0.3,0.4-0.7,0.4-1.2C462.5,71.2,462.4,70.8,462.1,70.5z"/>
	<path class="st1" d="M466.9,74.9c-0.5-0.2-0.8-0.5-1.1-0.8c-0.3-0.3-0.4-0.7-0.5-1.2h2c0,0.2,0.1,0.4,0.3,0.6s0.4,0.2,0.7,0.2
		c0.3,0,0.5-0.1,0.6-0.2c0.1-0.1,0.2-0.2,0.2-0.4c0-0.2-0.1-0.3-0.3-0.4s-0.5-0.2-1-0.3c-0.5-0.1-0.9-0.2-1.2-0.3s-0.6-0.3-0.8-0.6
		s-0.4-0.6-0.4-1.1c0-0.4,0.1-0.7,0.3-1.1c0.2-0.3,0.5-0.6,0.9-0.8c0.4-0.2,0.9-0.3,1.5-0.3c0.8,0,1.5,0.2,2,0.6
		c0.5,0.4,0.8,1,0.8,1.7h-1.9c0-0.2-0.1-0.4-0.3-0.6c-0.2-0.1-0.4-0.2-0.7-0.2c-0.2,0-0.4,0.1-0.5,0.1c-0.1,0.1-0.2,0.2-0.2,0.4
		c0,0.2,0.1,0.3,0.3,0.4c0.2,0.1,0.5,0.2,1,0.3c0.5,0.1,0.9,0.3,1.2,0.4c0.3,0.1,0.6,0.3,0.8,0.6s0.4,0.7,0.4,1.1
		c0,0.4-0.1,0.7-0.3,1.1c-0.2,0.3-0.5,0.6-1,0.7s-0.9,0.3-1.4,0.3C467.8,75.2,467.3,75.1,466.9,74.9z"/>
</g>
<path class="st4" d="M357.6,4L357.6,4c0-2.2,1.7-3.9,3.9-3.9H377c1,0,2,0.4,2.8,1.1s1.1,1.7,1.1,2.8v15.6c0,2.1-1.7,3.9-3.9,3.9
	h-15.6c-2.1,0-3.9-1.7-3.9-3.9V4z"/>
<g>
	<path class="st1" d="M373,8.1h-5v2.2c0.2-0.2,0.5-0.4,0.9-0.6s0.8-0.2,1.3-0.2c0.8,0,1.5,0.2,2,0.5s0.9,0.8,1.2,1.4
		c0.3,0.6,0.4,1.2,0.4,1.9c0,1.3-0.4,2.2-1.1,3c-0.7,0.7-1.7,1.1-3,1.1c-0.9,0-1.6-0.1-2.2-0.4s-1.1-0.7-1.5-1.2
		c-0.3-0.5-0.5-1.1-0.6-1.8h2.7c0.1,0.3,0.2,0.6,0.5,0.8c0.3,0.2,0.6,0.3,1,0.3c0.5,0,0.9-0.2,1.1-0.5s0.4-0.8,0.4-1.3
		c0-0.5-0.1-0.9-0.4-1.2s-0.6-0.4-1.1-0.4c-0.4,0-0.7,0.1-0.9,0.3c-0.2,0.2-0.4,0.4-0.5,0.7h-2.6v-7h7.5V8.1z"/>
</g>
<path class="st4" d="M357.6,55.8L357.6,55.8c0-2.2,1.7-3.9,3.9-3.9H377c1,0,2,0.4,2.8,1.1s1.1,1.7,1.1,2.8v15.6
	c0,2.2-1.7,3.9-3.9,3.9h-15.6c-2.1,0-3.9-1.7-3.9-3.9V55.8z"/>
<g>
	<path class="st1" d="M366.4,58.2c0.7-0.6,1.7-0.9,2.9-0.9c0.8,0,1.5,0.1,2.1,0.4c0.6,0.3,1,0.7,1.3,1.1s0.4,1,0.4,1.6
		c0,0.7-0.2,1.3-0.5,1.7c-0.4,0.4-0.8,0.7-1.2,0.9v0.1c0.6,0.2,1.1,0.5,1.4,1c0.4,0.5,0.5,1.1,0.5,1.8c0,0.7-0.1,1.3-0.5,1.8
		c-0.3,0.5-0.8,0.9-1.3,1.2s-1.3,0.4-2.1,0.4c-1.3,0-2.3-0.3-3.1-0.9c-0.8-0.6-1.2-1.6-1.2-2.8h2.7c0,0.5,0.1,0.8,0.4,1.1
		s0.6,0.4,1.1,0.4c0.4,0,0.7-0.1,1-0.4s0.3-0.6,0.3-0.9c0-0.5-0.2-0.9-0.5-1.1c-0.3-0.2-0.9-0.3-1.6-0.3H368V62h0.5
		c0.5,0,1-0.1,1.3-0.3s0.5-0.5,0.5-1c0-0.4-0.1-0.7-0.3-0.9c-0.2-0.2-0.5-0.3-0.9-0.3c-0.4,0-0.7,0.1-0.9,0.4s-0.3,0.5-0.3,0.9h-2.7
		C365.3,59.6,365.6,58.8,366.4,58.2z"/>
</g>
<path class="st4" d="M357.6,29.9L357.6,29.9c0-2.1,1.7-3.9,3.9-3.9H377c1,0,2,0.4,2.8,1.1s1.1,1.7,1.1,2.8v15.6
	c0,2.2-1.7,3.9-3.9,3.9h-15.6c-2.1,0-3.9-1.7-3.9-3.9V29.9z"/>
<g>
	<path class="st1" d="M364.6,41.2V39l5-7.2h3.1v7.1h1.3v2.4h-1.3v2.1H370v-2.1C370,41.2,364.6,41.2,364.6,41.2z M370.2,34.8
		l-2.7,4.1h2.7V34.8z"/>
</g>
<path class="st4" d="M357.6,81.7L357.6,81.7c0-2.2,1.7-3.9,3.9-3.9H377c1,0,2,0.4,2.8,1.1c0.7,0.7,1.1,1.7,1.1,2.8v15.6
	c0,2.2-1.7,3.9-3.9,3.9h-15.6c-2.1,0-3.9-1.7-3.9-3.9V81.7z"/>
<g>
	<path class="st1" d="M365.8,92.5c1-0.9,1.9-1.6,2.5-2.1c0.6-0.6,1.1-1.1,1.5-1.7c0.4-0.6,0.6-1.2,0.6-1.8c0-0.4-0.1-0.8-0.3-1
		c-0.2-0.3-0.5-0.4-0.9-0.4c-0.4,0-0.7,0.2-1,0.5c-0.2,0.3-0.3,0.7-0.3,1.3h-2.6c0-0.9,0.2-1.7,0.6-2.3c0.4-0.6,0.9-1.1,1.5-1.3
		c0.6-0.3,1.3-0.4,2-0.4c1.3,0,2.2,0.3,2.9,1c0.6,0.7,1,1.5,1,2.5c0,1.1-0.4,2.2-1.2,3.2s-1.8,1.9-3,2.9h4.3V95h-8v-2.1
		C365.7,92.6,365.8,92.5,365.8,92.5z"/>
</g>
<path class="st4" d="M357.6,107.6L357.6,107.6c0-2.2,1.7-3.9,3.9-3.9H377c1,0,2,0.4,2.8,1.1c0.7,0.7,1.1,1.7,1.1,2.8v15.6
	c0,2.2-1.7,3.9-3.9,3.9h-15.6c-2.1,0-3.9-1.7-3.9-3.9V107.6z"/>
<g>
	<path class="st1" d="M366.7,111.9v-2.5h4.4V121h-2.9v-9.1L366.7,111.9L366.7,111.9z"/>
</g>
<path class="st3" d="M358.3,137.1L358.3,137.1c0-2.1,1.7-3.9,3.9-3.9h15.6c1,0,2,0.4,2.8,1.1s1.1,1.7,1.1,2.8v15.6
	c0,2.1-1.7,3.9-3.9,3.9h-15.6c-2.1,0-3.9-1.7-3.9-3.9V137.1z"/>
<g>
	<path class="st1" d="M367.3,141.3v-2.5h4.4v11.7h-2.9v-9.1L367.3,141.3L367.3,141.3z"/>
</g>
<path class="st3" d="M358.3,188.9L358.3,188.9c0-2.1,1.7-3.9,3.9-3.9h15.6c1,0,2,0.4,2.8,1.1s1.1,1.7,1.1,2.8v15.6
	c0,2.1-1.7,3.9-3.9,3.9h-15.6c-2.1,0-3.9-1.7-3.9-3.9V188.9z"/>
<g>
	<path class="st1" d="M367,191.3c0.7-0.6,1.7-0.9,2.9-0.9c0.8,0,1.5,0.1,2.1,0.4s1,0.7,1.3,1.1c0.3,0.5,0.4,1,0.4,1.6
		c0,0.7-0.2,1.3-0.5,1.7s-0.8,0.7-1.2,0.9v0.1c0.6,0.2,1.1,0.5,1.4,1s0.5,1.1,0.5,1.8c0,0.7-0.1,1.3-0.5,1.8
		c-0.3,0.5-0.8,0.9-1.3,1.2s-1.3,0.4-2.1,0.4c-1.3,0-2.3-0.3-3.1-0.9s-1.2-1.6-1.2-2.9h2.7c0,0.5,0.1,0.8,0.4,1.1
		c0.3,0.3,0.6,0.4,1.1,0.4c0.4,0,0.7-0.1,1-0.4s0.3-0.6,0.3-0.9c0-0.5-0.2-0.9-0.5-1.1s-0.9-0.3-1.6-0.3h-0.5v-2.2h0.5
		c0.5,0,1-0.1,1.3-0.3s0.5-0.5,0.5-1c0-0.4-0.1-0.7-0.3-0.9c-0.2-0.2-0.5-0.3-0.9-0.3c-0.4,0-0.7,0.1-0.9,0.4s-0.3,0.6-0.3,0.9h-2.7
		C365.9,192.8,366.3,191.9,367,191.3z"/>
</g>
<path class="st3" d="M358.3,163L358.3,163c0-2.1,1.7-3.9,3.9-3.9h15.6c1,0,2,0.4,2.8,1.1s1.1,1.7,1.1,2.8v15.6
	c0,2.1-1.7,3.9-3.9,3.9h-15.6c-2.1,0-3.9-1.7-3.9-3.9V163z"/>
<g>
	<path class="st1" d="M366.5,173.8c1-0.9,1.9-1.6,2.5-2.1c0.6-0.6,1.1-1.1,1.5-1.7c0.4-0.6,0.6-1.2,0.6-1.8c0-0.4-0.1-0.8-0.3-1
		s-0.5-0.4-0.9-0.4s-0.7,0.1-1,0.5c-0.2,0.3-0.3,0.7-0.3,1.3H366c0-0.9,0.2-1.7,0.6-2.3s0.9-1.1,1.5-1.3c0.6-0.3,1.3-0.4,2-0.4
		c1.3,0,2.2,0.3,2.9,1c0.6,0.6,1,1.5,1,2.5c0,1.1-0.4,2.2-1.2,3.2s-1.8,1.9-3,2.9h4.3v2.2h-8v-2
		C366.3,173.9,366.5,173.8,366.5,173.8z"/>
</g>
<path class="st3" d="M358.3,240.7L358.3,240.7c0-2.1,1.7-3.9,3.9-3.9h15.6c1,0,2,0.4,2.8,1.1s1.1,1.7,1.1,2.8v15.6
	c0,2.1-1.7,3.9-3.9,3.9h-15.6c-2.1,0-3.9-1.7-3.9-3.9V240.7z"/>
<g>
	<path class="st1" d="M373.7,244.8h-5v2.2c0.2-0.2,0.5-0.4,0.9-0.6c0.4-0.1,0.8-0.2,1.3-0.2c0.8,0,1.5,0.2,2,0.5s0.9,0.8,1.2,1.4
		c0.3,0.6,0.4,1.2,0.4,1.9c0,1.3-0.4,2.2-1.1,3s-1.7,1.1-3,1.1c-0.9,0-1.6-0.1-2.2-0.4c-0.6-0.3-1.1-0.7-1.5-1.2s-0.5-1.1-0.6-1.8
		h2.7c0.1,0.3,0.2,0.6,0.5,0.8c0.3,0.2,0.6,0.3,1,0.3c0.5,0,0.9-0.2,1.1-0.5c0.2-0.3,0.4-0.8,0.4-1.3c0-0.5-0.1-0.9-0.4-1.2
		s-0.6-0.4-1.1-0.4c-0.4,0-0.7,0.1-0.9,0.3c-0.2,0.2-0.4,0.4-0.5,0.7h-2.6v-7h7.5L373.7,244.8L373.7,244.8z"/>
</g>
<path class="st5" d="M358.3,222.6c-26.7,0-40,0-53.4-0.1c-13.4,0-26.7-0.1-53.4-0.1"/>
<path class="st5" d="M358.3,144.9c-26.7,0-40-13-53.4-26s-26.7-26-53.4-26"/>
<path class="st5" d="M358.3,196.7c-26.7,0-40-13-53.4-26c-13.4-13-26.7-26-53.4-26"/>
<path class="st5" d="M358.3,170.8c-26.7,0-40,19.4-53.4,38.8c-13.4,19.4-26.7,38.8-53.4,38.8"/>
<path class="st5" d="M358.3,248.5c-26.7,0-40-13-53.4-26c-13.4-13-26.7-26-53.4-26"/>
<path class="st6" d="M380.9,11.7c19.5,0,38.8,59.2,38.9,118.4s-19.1,118.4-38.3,118.4"/>
<path class="st7" d="M380.9,11.7c19.5,0,38.8,59.2,38.9,118.4s-19.1,118.4-38.3,118.4"/>
<path class="st7" d="M380.9,37.7c15.7,0,31.3,46.2,31.4,92.5s-15.4,92.5-30.8,92.5"/>
<path class="st7" d="M380.9,63.6c12.3,0,24.6,33.3,24.7,66.6s-12,66.6-24,66.6"/>
<path class="st7" d="M380.9,89.5c8.6,0,17.1,20.3,17.2,40.6c0.1,20.3-8.3,40.6-16.5,40.6"/>
<path class="st7" d="M380.9,115.4c4.8,0,9.6,7.4,9.7,14.7c0.1,7.4-4.5,14.7-9,14.7"/>
<g>
	<g>
		<g>
			<path class="st8" d="M331.1,131.1l-2.7,11.1h-0.9l2.7-11.1H331.1z"/>
			<path class="st8" d="M333.3,140.4c-0.3-0.1-0.6-0.3-0.8-0.6c-0.2-0.3-0.3-0.6-0.3-0.9h0.9c0,0.3,0.2,0.5,0.4,0.7
				c0.2,0.2,0.5,0.3,0.9,0.3c0.4,0,0.6-0.1,0.8-0.2s0.3-0.4,0.3-0.6c0-0.2-0.1-0.4-0.3-0.5c-0.2-0.1-0.5-0.2-1-0.3
				c-0.4-0.1-0.7-0.2-1-0.3c-0.3-0.1-0.5-0.3-0.7-0.5s-0.3-0.5-0.3-0.9c0-0.3,0.1-0.5,0.3-0.8s0.4-0.4,0.7-0.6s0.7-0.2,1-0.2
				c0.6,0,1.1,0.1,1.5,0.5s0.6,0.7,0.6,1.3h-0.9c0-0.3-0.1-0.5-0.3-0.7s-0.5-0.3-0.9-0.3c-0.3,0-0.6,0.1-0.8,0.2s-0.3,0.3-0.3,0.6
				c0,0.2,0.1,0.3,0.2,0.4s0.3,0.2,0.4,0.3c0.2,0.1,0.4,0.1,0.7,0.2c0.4,0.1,0.7,0.2,1,0.3s0.5,0.3,0.6,0.5c0.2,0.2,0.3,0.5,0.3,0.8
				c0,0.3-0.1,0.6-0.3,0.8c-0.2,0.2-0.4,0.4-0.7,0.6c-0.3,0.1-0.6,0.2-1,0.2C334,140.6,333.6,140.6,333.3,140.4z"/>
			<path class="st8" d="M338.8,135.8v3.2c0,0.3,0.1,0.5,0.2,0.6c0.1,0.1,0.3,0.2,0.6,0.2h0.7v0.8h-0.8c-0.5,0-0.9-0.1-1.1-0.4
				s-0.4-0.6-0.4-1.1v-3.2h-0.7v-0.8h0.7v-1.4h0.9v1.4h1.4v0.8L338.8,135.8L338.8,135.8z"/>
			<path class="st8" d="M341.3,136.3c0.2-0.4,0.5-0.8,0.9-1s0.8-0.4,1.3-0.4s0.9,0.1,1.3,0.3c0.4,0.2,0.6,0.5,0.8,0.8v-1h0.9v5.5
				h-0.9v-1c-0.2,0.3-0.5,0.6-0.8,0.8c-0.4,0.2-0.8,0.3-1.2,0.3c-0.5,0-0.9-0.1-1.3-0.4s-0.7-0.6-0.9-1c-0.2-0.4-0.3-0.9-0.3-1.5
				C341,137.2,341.1,136.7,341.3,136.3z M345.4,136.7c-0.2-0.3-0.4-0.5-0.7-0.7c-0.3-0.2-0.6-0.3-0.9-0.3s-0.6,0.1-0.9,0.2
				s-0.5,0.4-0.7,0.7s-0.3,0.7-0.3,1.1c0,0.4,0.1,0.8,0.3,1.1s0.4,0.6,0.7,0.7s0.6,0.3,0.9,0.3s0.6-0.1,0.9-0.3s0.5-0.4,0.7-0.7
				c0.2-0.3,0.3-0.7,0.3-1.1S345.6,137,345.4,136.7z"/>
			<path class="st8" d="M349.7,135.2c0.3-0.2,0.7-0.3,1.1-0.3v0.9h-0.2c-1,0-1.5,0.6-1.5,1.7v3h-0.9v-5.5h0.9v0.9
				C349.2,135.6,349.4,135.4,349.7,135.2z"/>
			<path class="st8" d="M352.9,135.8v3.2c0,0.3,0.1,0.5,0.2,0.6c0.1,0.1,0.3,0.2,0.6,0.2h0.7v0.8h-0.8c-0.5,0-0.9-0.1-1.1-0.4
				c-0.3-0.2-0.4-0.6-0.4-1.1v-3.2h-0.7v-0.8h0.7v-1.4h0.9v1.4h1.4v0.8L352.9,135.8L352.9,135.8z"/>
		</g>
	</g>
	<g>
		<g>
			<path class="st9" d="M331.1,131.1l-2.7,11.1h-0.9l2.7-11.1H331.1z"/>
			<path class="st9" d="M333.3,140.4c-0.3-0.1-0.6-0.3-0.8-0.6c-0.2-0.3-0.3-0.6-0.3-0.9h0.9c0,0.3,0.2,0.5,0.4,0.7
				c0.2,0.2,0.5,0.3,0.9,0.3c0.4,0,0.6-0.1,0.8-0.2s0.3-0.4,0.3-0.6c0-0.2-0.1-0.4-0.3-0.5c-0.2-0.1-0.5-0.2-1-0.3
				c-0.4-0.1-0.7-0.2-1-0.3c-0.3-0.1-0.5-0.3-0.7-0.5s-0.3-0.5-0.3-0.9c0-0.3,0.1-0.5,0.3-0.8s0.4-0.4,0.7-0.6s0.7-0.2,1-0.2
				c0.6,0,1.1,0.1,1.5,0.5s0.6,0.7,0.6,1.3h-0.9c0-0.3-0.1-0.5-0.3-0.7s-0.5-0.3-0.9-0.3c-0.3,0-0.6,0.1-0.8,0.2s-0.3,0.3-0.3,0.6
				c0,0.2,0.1,0.3,0.2,0.4s0.3,0.2,0.4,0.3c0.2,0.1,0.4,0.1,0.7,0.2c0.4,0.1,0.7,0.2,1,0.3s0.5,0.3,0.6,0.5c0.2,0.2,0.3,0.5,0.3,0.8
				c0,0.3-0.1,0.6-0.3,0.8c-0.2,0.2-0.4,0.4-0.7,0.6c-0.3,0.1-0.6,0.2-1,0.2C334,140.6,333.6,140.6,333.3,140.4z"/>
			<path class="st9" d="M338.8,135.8v3.2c0,0.3,0.1,0.5,0.2,0.6c0.1,0.1,0.3,0.2,0.6,0.2h0.7v0.8h-0.8c-0.5,0-0.9-0.1-1.1-0.4
				s-0.4-0.6-0.4-1.1v-3.2h-0.7v-0.8h0.7v-1.4h0.9v1.4h1.4v0.8L338.8,135.8L338.8,135.8z"/>
			<path class="st9" d="M341.3,136.3c0.2-0.4,0.5-0.8,0.9-1s0.8-0.4,1.3-0.4s0.9,0.1,1.3,0.3c0.4,0.2,0.6,0.5,0.8,0.8v-1h0.9v5.5
				h-0.9v-1c-0.2,0.3-0.5,0.6-0.8,0.8c-0.4,0.2-0.8,0.3-1.2,0.3c-0.5,0-0.9-0.1-1.3-0.4s-0.7-0.6-0.9-1c-0.2-0.4-0.3-0.9-0.3-1.5
				C341,137.2,341.1,136.7,341.3,136.3z M345.4,136.7c-0.2-0.3-0.4-0.5-0.7-0.7c-0.3-0.2-0.6-0.3-0.9-0.3s-0.6,0.1-0.9,0.2
				s-0.5,0.4-0.7,0.7s-0.3,0.7-0.3,1.1c0,0.4,0.1,0.8,0.3,1.1s0.4,0.6,0.7,0.7s0.6,0.3,0.9,0.3s0.6-0.1,0.9-0.3s0.5-0.4,0.7-0.7
				c0.2-0.3,0.3-0.7,0.3-1.1S345.6,137,345.4,136.7z"/>
			<path class="st9" d="M349.7,135.2c0.3-0.2,0.7-0.3,1.1-0.3v0.9h-0.2c-1,0-1.5,0.6-1.5,1.7v3h-0.9v-5.5h0.9v0.9
				C349.2,135.6,349.4,135.4,349.7,135.2z"/>
			<path class="st9" d="M352.9,135.8v3.2c0,0.3,0.1,0.5,0.2,0.6c0.1,0.1,0.3,0.2,0.6,0.2h0.7v0.8h-0.8c-0.5,0-0.9-0.1-1.1-0.4
				c-0.3-0.2-0.4-0.6-0.4-1.1v-3.2h-0.7v-0.8h0.7v-1.4h0.9v1.4h1.4v0.8L352.9,135.8L352.9,135.8z"/>
		</g>
	</g>
	<g>
		<g>
			<path class="st8" d="M331.1,131.1l-2.7,11.1h-0.9l2.7-11.1H331.1z"/>
			<path class="st8" d="M333.3,140.4c-0.3-0.1-0.6-0.3-0.8-0.6c-0.2-0.3-0.3-0.6-0.3-0.9h0.9c0,0.3,0.2,0.5,0.4,0.7
				c0.2,0.2,0.5,0.3,0.9,0.3c0.4,0,0.6-0.1,0.8-0.2s0.3-0.4,0.3-0.6c0-0.2-0.1-0.4-0.3-0.5c-0.2-0.1-0.5-0.2-1-0.3
				c-0.4-0.1-0.7-0.2-1-0.3c-0.3-0.1-0.5-0.3-0.7-0.5s-0.3-0.5-0.3-0.9c0-0.3,0.1-0.5,0.3-0.8s0.4-0.4,0.7-0.6s0.7-0.2,1-0.2
				c0.6,0,1.1,0.1,1.5,0.5s0.6,0.7,0.6,1.3h-0.9c0-0.3-0.1-0.5-0.3-0.7s-0.5-0.3-0.9-0.3c-0.3,0-0.6,0.1-0.8,0.2s-0.3,0.3-0.3,0.6
				c0,0.2,0.1,0.3,0.2,0.4s0.3,0.2,0.4,0.3c0.2,0.1,0.4,0.1,0.7,0.2c0.4,0.1,0.7,0.2,1,0.3s0.5,0.3,0.6,0.5c0.2,0.2,0.3,0.5,0.3,0.8
				c0,0.3-0.1,0.6-0.3,0.8c-0.2,0.2-0.4,0.4-0.7,0.6c-0.3,0.1-0.6,0.2-1,0.2C334,140.6,333.6,140.6,333.3,140.4z"/>
			<path class="st8" d="M338.8,135.8v3.2c0,0.3,0.1,0.5,0.2,0.6c0.1,0.1,0.3,0.2,0.6,0.2h0.7v0.8h-0.8c-0.5,0-0.9-0.1-1.1-0.4
				s-0.4-0.6-0.4-1.1v-3.2h-0.7v-0.8h0.7v-1.4h0.9v1.4h1.4v0.8L338.8,135.8L338.8,135.8z"/>
			<path class="st8" d="M341.3,136.3c0.2-0.4,0.5-0.8,0.9-1s0.8-0.4,1.3-0.4s0.9,0.1,1.3,0.3c0.4,0.2,0.6,0.5,0.8,0.8v-1h0.9v5.5
				h-0.9v-1c-0.2,0.3-0.5,0.6-0.8,0.8c-0.4,0.2-0.8,0.3-1.2,0.3c-0.5,0-0.9-0.1-1.3-0.4s-0.7-0.6-0.9-1c-0.2-0.4-0.3-0.9-0.3-1.5
				C341,137.2,341.1,136.7,341.3,136.3z M345.4,136.7c-0.2-0.3-0.4-0.5-0.7-0.7c-0.3-0.2-0.6-0.3-0.9-0.3s-0.6,0.1-0.9,0.2
				s-0.5,0.4-0.7,0.7s-0.3,0.7-0.3,1.1c0,0.4,0.1,0.8,0.3,1.1s0.4,0.6,0.7,0.7s0.6,0.3,0.9,0.3s0.6-0.1,0.9-0.3s0.5-0.4,0.7-0.7
				c0.2-0.3,0.3-0.7,0.3-1.1S345.6,137,345.4,136.7z"/>
			<path class="st8" d="M349.7,135.2c0.3-0.2,0.7-0.3,1.1-0.3v0.9h-0.2c-1,0-1.5,0.6-1.5,1.7v3h-0.9v-5.5h0.9v0.9
				C349.2,135.6,349.4,135.4,349.7,135.2z"/>
			<path class="st8" d="M352.9,135.8v3.2c0,0.3,0.1,0.5,0.2,0.6c0.1,0.1,0.3,0.2,0.6,0.2h0.7v0.8h-0.8c-0.5,0-0.9-0.1-1.1-0.4
				c-0.3-0.2-0.4-0.6-0.4-1.1v-3.2h-0.7v-0.8h0.7v-1.4h0.9v1.4h1.4v0.8L352.9,135.8L352.9,135.8z"/>
		</g>
	</g>
</g>
<g>
	<g>
		<g>
			<path class="st8" d="M333.1,156.6l-2.7,11.1h-0.9l2.7-11.1H333.1z"/>
			<path class="st8" d="M338.7,161.1c0.4,0.4,0.6,1,0.6,1.7v3.2h-0.9v-3.1c0-0.6-0.1-1-0.4-1.3s-0.6-0.4-1.1-0.4
				c-0.5,0-0.9,0.1-1.1,0.4c-0.3,0.3-0.4,0.7-0.4,1.3v3h-0.9v-5.5h0.9v0.8c0.2-0.3,0.4-0.5,0.7-0.6c0.3-0.1,0.6-0.2,1-0.2
				C337.8,160.5,338.3,160.7,338.7,161.1z"/>
			<path class="st8" d="M345.8,163.6h-4.4c0,0.5,0.2,1,0.5,1.3c0.3,0.3,0.8,0.5,1.2,0.5c0.4,0,0.7-0.1,1-0.3s0.5-0.4,0.5-0.7h1
				c-0.1,0.5-0.4,1-0.9,1.3s-1,0.5-1.6,0.5c-0.5,0-1-0.1-1.4-0.4s-0.7-0.6-1-1c-0.2-0.4-0.4-0.9-0.4-1.5s0.1-1.1,0.3-1.5
				s0.5-0.8,1-1c0.4-0.2,0.9-0.4,1.4-0.4c0.5,0,1,0.1,1.4,0.3s0.7,0.5,0.9,0.9c0.2,0.4,0.3,0.8,0.3,1.3
				C345.8,163.3,345.8,163.4,345.8,163.6z M344.7,162c-0.1-0.3-0.4-0.4-0.6-0.6c-0.3-0.1-0.5-0.2-0.9-0.2c-0.5,0-0.9,0.1-1.2,0.4
				c-0.3,0.3-0.5,0.7-0.5,1.2h3.5C344.9,162.6,344.8,162.3,344.7,162z"/>
			<path class="st8" d="M349.9,166l-1.3-2l-1.3,2h-1l1.8-2.7l-1.8-2.8h1l1.3,2l1.2-2h1l-1.8,2.7l1.8,2.8L349.9,166L349.9,166z"/>
			<path class="st8" d="M352.9,161.3v3.2c0,0.3,0.1,0.5,0.2,0.6c0.1,0.1,0.3,0.2,0.6,0.2h0.7v0.8h-0.8c-0.5,0-0.9-0.1-1.1-0.4
				c-0.3-0.2-0.4-0.6-0.4-1.1v-3.2h-0.7v-0.8h0.7v-1.4h0.9v1.4h1.4v0.8L352.9,161.3L352.9,161.3z"/>
		</g>
	</g>
	<g>
		<g>
			<path class="st9" d="M333.1,156.6l-2.7,11.1h-0.9l2.7-11.1H333.1z"/>
			<path class="st9" d="M338.7,161.1c0.4,0.4,0.6,1,0.6,1.7v3.2h-0.9v-3.1c0-0.6-0.1-1-0.4-1.3s-0.6-0.4-1.1-0.4
				c-0.5,0-0.9,0.1-1.1,0.4c-0.3,0.3-0.4,0.7-0.4,1.3v3h-0.9v-5.5h0.9v0.8c0.2-0.3,0.4-0.5,0.7-0.6c0.3-0.1,0.6-0.2,1-0.2
				C337.8,160.5,338.3,160.7,338.7,161.1z"/>
			<path class="st9" d="M345.8,163.6h-4.4c0,0.5,0.2,1,0.5,1.3c0.3,0.3,0.8,0.5,1.2,0.5c0.4,0,0.7-0.1,1-0.3s0.5-0.4,0.5-0.7h1
				c-0.1,0.5-0.4,1-0.9,1.3s-1,0.5-1.6,0.5c-0.5,0-1-0.1-1.4-0.4s-0.7-0.6-1-1c-0.2-0.4-0.4-0.9-0.4-1.5s0.1-1.1,0.3-1.5
				s0.5-0.8,1-1c0.4-0.2,0.9-0.4,1.4-0.4c0.5,0,1,0.1,1.4,0.3s0.7,0.5,0.9,0.9c0.2,0.4,0.3,0.8,0.3,1.3
				C345.8,163.3,345.8,163.4,345.8,163.6z M344.7,162c-0.1-0.3-0.4-0.4-0.6-0.6c-0.3-0.1-0.5-0.2-0.9-0.2c-0.5,0-0.9,0.1-1.2,0.4
				c-0.3,0.3-0.5,0.7-0.5,1.2h3.5C344.9,162.6,344.8,162.3,344.7,162z"/>
			<path class="st9" d="M349.9,166l-1.3-2l-1.3,2h-1l1.8-2.7l-1.8-2.8h1l1.3,2l1.2-2h1l-1.8,2.7l1.8,2.8L349.9,166L349.9,166z"/>
			<path class="st9" d="M352.9,161.3v3.2c0,0.3,0.1,0.5,0.2,0.6c0.1,0.1,0.3,0.2,0.6,0.2h0.7v0.8h-0.8c-0.5,0-0.9-0.1-1.1-0.4
				c-0.3-0.2-0.4-0.6-0.4-1.1v-3.2h-0.7v-0.8h0.7v-1.4h0.9v1.4h1.4v0.8L352.9,161.3L352.9,161.3z"/>
		</g>
	</g>
	<g>
		<g>
			<path class="st8" d="M333.1,156.6l-2.7,11.1h-0.9l2.7-11.1H333.1z"/>
			<path class="st8" d="M338.7,161.1c0.4,0.4,0.6,1,0.6,1.7v3.2h-0.9v-3.1c0-0.6-0.1-1-0.4-1.3s-0.6-0.4-1.1-0.4
				c-0.5,0-0.9,0.1-1.1,0.4c-0.3,0.3-0.4,0.7-0.4,1.3v3h-0.9v-5.5h0.9v0.8c0.2-0.3,0.4-0.5,0.7-0.6c0.3-0.1,0.6-0.2,1-0.2
				C337.8,160.5,338.3,160.7,338.7,161.1z"/>
			<path class="st8" d="M345.8,163.6h-4.4c0,0.5,0.2,1,0.5,1.3c0.3,0.3,0.8,0.5,1.2,0.5c0.4,0,0.7-0.1,1-0.3s0.5-0.4,0.5-0.7h1
				c-0.1,0.5-0.4,1-0.9,1.3s-1,0.5-1.6,0.5c-0.5,0-1-0.1-1.4-0.4s-0.7-0.6-1-1c-0.2-0.4-0.4-0.9-0.4-1.5s0.1-1.1,0.3-1.5
				s0.5-0.8,1-1c0.4-0.2,0.9-0.4,1.4-0.4c0.5,0,1,0.1,1.4,0.3s0.7,0.5,0.9,0.9c0.2,0.4,0.3,0.8,0.3,1.3
				C345.8,163.3,345.8,163.4,345.8,163.6z M344.7,162c-0.1-0.3-0.4-0.4-0.6-0.6c-0.3-0.1-0.5-0.2-0.9-0.2c-0.5,0-0.9,0.1-1.2,0.4
				c-0.3,0.3-0.5,0.7-0.5,1.2h3.5C344.9,162.6,344.8,162.3,344.7,162z"/>
			<path class="st8" d="M349.9,166l-1.3-2l-1.3,2h-1l1.8-2.7l-1.8-2.8h1l1.3,2l1.2-2h1l-1.8,2.7l1.8,2.8L349.9,166L349.9,166z"/>
			<path class="st8" d="M352.9,161.3v3.2c0,0.3,0.1,0.5,0.2,0.6c0.1,0.1,0.3,0.2,0.6,0.2h0.7v0.8h-0.8c-0.5,0-0.9-0.1-1.1-0.4
				c-0.3-0.2-0.4-0.6-0.4-1.1v-3.2h-0.7v-0.8h0.7v-1.4h0.9v1.4h1.4v0.8L352.9,161.3L352.9,161.3z"/>
		</g>
	</g>
</g>
<g>
	<g>
		<g>
			<path class="st8" d="M322.7,182.1l-2.7,11.1h-0.9l2.7-11.1L322.7,182.1L322.7,182.1z"/>
			<path class="st8" d="M324.1,187.3c0.2-0.4,0.5-0.8,1-1c0.4-0.2,0.9-0.4,1.4-0.4c0.7,0,1.2,0.2,1.7,0.5s0.7,0.8,0.9,1.4h-1
				c-0.1-0.3-0.3-0.6-0.5-0.8s-0.6-0.3-1-0.3c-0.5,0-0.9,0.2-1.3,0.5s-0.5,0.9-0.5,1.5c0,0.7,0.2,1.2,0.5,1.5s0.7,0.5,1.3,0.5
				c0.4,0,0.7-0.1,1-0.3s0.5-0.4,0.5-0.8h1c-0.1,0.6-0.4,1-0.9,1.3c-0.4,0.3-1,0.5-1.6,0.5c-0.5,0-1-0.1-1.4-0.4
				c-0.4-0.2-0.7-0.6-1-1s-0.3-0.9-0.3-1.5C323.8,188.2,323.9,187.7,324.1,187.3z"/>
			<path class="st8" d="M331.2,191.3c-0.4-0.2-0.7-0.6-1-1s-0.4-0.9-0.4-1.5c0-0.6,0.1-1.1,0.4-1.5c0.2-0.4,0.6-0.8,1-1
				c0.4-0.2,0.9-0.4,1.4-0.4s1,0.1,1.4,0.4c0.4,0.2,0.8,0.6,1,1s0.4,0.9,0.4,1.5s-0.1,1.1-0.4,1.5s-0.6,0.8-1,1
				c-0.4,0.2-0.9,0.4-1.4,0.4C332,191.6,331.6,191.5,331.2,191.3z M333.5,190.6c0.3-0.1,0.5-0.4,0.7-0.7s0.3-0.7,0.3-1.1
				s-0.1-0.8-0.3-1.1s-0.4-0.5-0.7-0.7c-0.3-0.1-0.6-0.2-0.9-0.2c-0.3,0-0.6,0.1-0.9,0.2s-0.5,0.4-0.7,0.7c-0.2,0.3-0.3,0.7-0.3,1.1
				c0,0.4,0.1,0.8,0.2,1.1s0.4,0.5,0.6,0.7c0.3,0.1,0.6,0.2,0.9,0.2S333.2,190.8,333.5,190.6z"/>
			<path class="st8" d="M340.9,186.6c0.4,0.4,0.6,1,0.6,1.7v3.2h-0.9v-3.1c0-0.6-0.1-1-0.4-1.3s-0.6-0.4-1.1-0.4
				c-0.5,0-0.9,0.1-1.1,0.4c-0.3,0.3-0.4,0.7-0.4,1.3v3h-0.9v-5.5h0.9v0.8c0.2-0.3,0.4-0.5,0.7-0.6c0.3-0.1,0.6-0.2,1-0.2
				C339.9,186,340.4,186.2,340.9,186.6z"/>
			<path class="st8" d="M345.2,186.8h-1.1v4.7h-0.9v-4.7h-0.7v-0.8h0.7v-0.4c0-0.6,0.2-1.1,0.5-1.3s0.8-0.4,1.5-0.4v0.8
				c-0.4,0-0.7,0.1-0.9,0.2c-0.2,0.2-0.2,0.4-0.2,0.8v0.4h1.1V186.8z"/>
			<path class="st8" d="M346.3,185c-0.1-0.1-0.2-0.3-0.2-0.4s0.1-0.3,0.2-0.4s0.3-0.2,0.4-0.2s0.3,0.1,0.4,0.2s0.2,0.3,0.2,0.4
				s-0.1,0.3-0.2,0.4c-0.1,0.1-0.3,0.2-0.4,0.2C346.5,185.2,346.4,185.1,346.3,185z M347.2,186.1v5.5h-0.9v-5.5H347.2z"/>
			<path class="st8" d="M352.2,186.3c0.4,0.2,0.6,0.5,0.8,0.8v-1h0.9v5.6c0,0.5-0.1,0.9-0.3,1.3s-0.5,0.7-0.9,0.9s-0.9,0.3-1.4,0.3
				c-0.7,0-1.3-0.2-1.8-0.5c-0.5-0.3-0.8-0.8-0.9-1.4h0.9c0.1,0.3,0.3,0.6,0.6,0.8c0.3,0.2,0.7,0.3,1.1,0.3c0.5,0,0.9-0.2,1.2-0.5
				c0.3-0.3,0.5-0.8,0.5-1.3v-1.1c-0.2,0.3-0.5,0.6-0.8,0.8c-0.4,0.2-0.8,0.3-1.2,0.3c-0.5,0-0.9-0.1-1.3-0.4
				c-0.4-0.2-0.7-0.6-0.9-1s-0.3-0.9-0.3-1.5c0-0.6,0.1-1.1,0.3-1.5c0.2-0.4,0.5-0.8,0.9-1s0.8-0.4,1.3-0.4
				C351.5,186,351.9,186.1,352.2,186.3z M352.8,187.7c-0.2-0.3-0.4-0.5-0.7-0.7c-0.3-0.2-0.6-0.3-0.9-0.3s-0.6,0.1-0.9,0.2
				s-0.5,0.4-0.7,0.7s-0.3,0.7-0.3,1.1c0,0.4,0.1,0.8,0.3,1.1s0.4,0.6,0.7,0.7s0.6,0.3,0.9,0.3s0.6-0.1,0.9-0.3s0.5-0.4,0.7-0.7
				c0.2-0.3,0.3-0.7,0.3-1.1S352.9,188,352.8,187.7z"/>
		</g>
	</g>
	<g>
		<g>
			<path class="st9" d="M322.7,182.1l-2.7,11.1h-0.9l2.7-11.1L322.7,182.1L322.7,182.1z"/>
			<path class="st9" d="M324.1,187.3c0.2-0.4,0.5-0.8,1-1c0.4-0.2,0.9-0.4,1.4-0.4c0.7,0,1.2,0.2,1.7,0.5s0.7,0.8,0.9,1.4h-1
				c-0.1-0.3-0.3-0.6-0.5-0.8s-0.6-0.3-1-0.3c-0.5,0-0.9,0.2-1.3,0.5s-0.5,0.9-0.5,1.5c0,0.7,0.2,1.2,0.5,1.5s0.7,0.5,1.3,0.5
				c0.4,0,0.7-0.1,1-0.3s0.5-0.4,0.5-0.8h1c-0.1,0.6-0.4,1-0.9,1.3c-0.4,0.3-1,0.5-1.6,0.5c-0.5,0-1-0.1-1.4-0.4
				c-0.4-0.2-0.7-0.6-1-1s-0.3-0.9-0.3-1.5C323.8,188.2,323.9,187.7,324.1,187.3z"/>
			<path class="st9" d="M331.2,191.3c-0.4-0.2-0.7-0.6-1-1s-0.4-0.9-0.4-1.5c0-0.6,0.1-1.1,0.4-1.5c0.2-0.4,0.6-0.8,1-1
				c0.4-0.2,0.9-0.4,1.4-0.4s1,0.1,1.4,0.4c0.4,0.2,0.8,0.6,1,1s0.4,0.9,0.4,1.5s-0.1,1.1-0.4,1.5s-0.6,0.8-1,1
				c-0.4,0.2-0.9,0.4-1.4,0.4C332,191.6,331.6,191.5,331.2,191.3z M333.5,190.6c0.3-0.1,0.5-0.4,0.7-0.7s0.3-0.7,0.3-1.1
				s-0.1-0.8-0.3-1.1s-0.4-0.5-0.7-0.7c-0.3-0.1-0.6-0.2-0.9-0.2c-0.3,0-0.6,0.1-0.9,0.2s-0.5,0.4-0.7,0.7c-0.2,0.3-0.3,0.7-0.3,1.1
				c0,0.4,0.1,0.8,0.2,1.1s0.4,0.5,0.6,0.7c0.3,0.1,0.6,0.2,0.9,0.2S333.2,190.8,333.5,190.6z"/>
			<path class="st9" d="M340.9,186.6c0.4,0.4,0.6,1,0.6,1.7v3.2h-0.9v-3.1c0-0.6-0.1-1-0.4-1.3s-0.6-0.4-1.1-0.4
				c-0.5,0-0.9,0.1-1.1,0.4c-0.3,0.3-0.4,0.7-0.4,1.3v3h-0.9v-5.5h0.9v0.8c0.2-0.3,0.4-0.5,0.7-0.6c0.3-0.1,0.6-0.2,1-0.2
				C339.9,186,340.4,186.2,340.9,186.6z"/>
			<path class="st9" d="M345.2,186.8h-1.1v4.7h-0.9v-4.7h-0.7v-0.8h0.7v-0.4c0-0.6,0.2-1.1,0.5-1.3s0.8-0.4,1.5-0.4v0.8
				c-0.4,0-0.7,0.1-0.9,0.2c-0.2,0.2-0.2,0.4-0.2,0.8v0.4h1.1V186.8z"/>
			<path class="st9" d="M346.3,185c-0.1-0.1-0.2-0.3-0.2-0.4s0.1-0.3,0.2-0.4s0.3-0.2,0.4-0.2s0.3,0.1,0.4,0.2s0.2,0.3,0.2,0.4
				s-0.1,0.3-0.2,0.4c-0.1,0.1-0.3,0.2-0.4,0.2C346.5,185.2,346.4,185.1,346.3,185z M347.2,186.1v5.5h-0.9v-5.5H347.2z"/>
			<path class="st9" d="M352.2,186.3c0.4,0.2,0.6,0.5,0.8,0.8v-1h0.9v5.6c0,0.5-0.1,0.9-0.3,1.3s-0.5,0.7-0.9,0.9s-0.9,0.3-1.4,0.3
				c-0.7,0-1.3-0.2-1.8-0.5c-0.5-0.3-0.8-0.8-0.9-1.4h0.9c0.1,0.3,0.3,0.6,0.6,0.8c0.3,0.2,0.7,0.3,1.1,0.3c0.5,0,0.9-0.2,1.2-0.5
				c0.3-0.3,0.5-0.8,0.5-1.3v-1.1c-0.2,0.3-0.5,0.6-0.8,0.8c-0.4,0.2-0.8,0.3-1.2,0.3c-0.5,0-0.9-0.1-1.3-0.4
				c-0.4-0.2-0.7-0.6-0.9-1s-0.3-0.9-0.3-1.5c0-0.6,0.1-1.1,0.3-1.5c0.2-0.4,0.5-0.8,0.9-1s0.8-0.4,1.3-0.4
				C351.5,186,351.9,186.1,352.2,186.3z M352.8,187.7c-0.2-0.3-0.4-0.5-0.7-0.7c-0.3-0.2-0.6-0.3-0.9-0.3s-0.6,0.1-0.9,0.2
				s-0.5,0.4-0.7,0.7s-0.3,0.7-0.3,1.1c0,0.4,0.1,0.8,0.3,1.1s0.4,0.6,0.7,0.7s0.6,0.3,0.9,0.3s0.6-0.1,0.9-0.3s0.5-0.4,0.7-0.7
				c0.2-0.3,0.3-0.7,0.3-1.1S352.9,188,352.8,187.7z"/>
		</g>
	</g>
	<g>
		<g>
			<path class="st8" d="M322.7,182.1l-2.7,11.1h-0.9l2.7-11.1L322.7,182.1L322.7,182.1z"/>
			<path class="st8" d="M324.1,187.3c0.2-0.4,0.5-0.8,1-1c0.4-0.2,0.9-0.4,1.4-0.4c0.7,0,1.2,0.2,1.7,0.5s0.7,0.8,0.9,1.4h-1
				c-0.1-0.3-0.3-0.6-0.5-0.8s-0.6-0.3-1-0.3c-0.5,0-0.9,0.2-1.3,0.5s-0.5,0.9-0.5,1.5c0,0.7,0.2,1.2,0.5,1.5s0.7,0.5,1.3,0.5
				c0.4,0,0.7-0.1,1-0.3s0.5-0.4,0.5-0.8h1c-0.1,0.6-0.4,1-0.9,1.3c-0.4,0.3-1,0.5-1.6,0.5c-0.5,0-1-0.1-1.4-0.4
				c-0.4-0.2-0.7-0.6-1-1s-0.3-0.9-0.3-1.5C323.8,188.2,323.9,187.7,324.1,187.3z"/>
			<path class="st8" d="M331.2,191.3c-0.4-0.2-0.7-0.6-1-1s-0.4-0.9-0.4-1.5c0-0.6,0.1-1.1,0.4-1.5c0.2-0.4,0.6-0.8,1-1
				c0.4-0.2,0.9-0.4,1.4-0.4s1,0.1,1.4,0.4c0.4,0.2,0.8,0.6,1,1s0.4,0.9,0.4,1.5s-0.1,1.1-0.4,1.5s-0.6,0.8-1,1
				c-0.4,0.2-0.9,0.4-1.4,0.4C332,191.6,331.6,191.5,331.2,191.3z M333.5,190.6c0.3-0.1,0.5-0.4,0.7-0.7s0.3-0.7,0.3-1.1
				s-0.1-0.8-0.3-1.1s-0.4-0.5-0.7-0.7c-0.3-0.1-0.6-0.2-0.9-0.2c-0.3,0-0.6,0.1-0.9,0.2s-0.5,0.4-0.7,0.7c-0.2,0.3-0.3,0.7-0.3,1.1
				c0,0.4,0.1,0.8,0.2,1.1s0.4,0.5,0.6,0.7c0.3,0.1,0.6,0.2,0.9,0.2S333.2,190.8,333.5,190.6z"/>
			<path class="st8" d="M340.9,186.6c0.4,0.4,0.6,1,0.6,1.7v3.2h-0.9v-3.1c0-0.6-0.1-1-0.4-1.3s-0.6-0.4-1.1-0.4
				c-0.5,0-0.9,0.1-1.1,0.4c-0.3,0.3-0.4,0.7-0.4,1.3v3h-0.9v-5.5h0.9v0.8c0.2-0.3,0.4-0.5,0.7-0.6c0.3-0.1,0.6-0.2,1-0.2
				C339.9,186,340.4,186.2,340.9,186.6z"/>
			<path class="st8" d="M345.2,186.8h-1.1v4.7h-0.9v-4.7h-0.7v-0.8h0.7v-0.4c0-0.6,0.2-1.1,0.5-1.3s0.8-0.4,1.5-0.4v0.8
				c-0.4,0-0.7,0.1-0.9,0.2c-0.2,0.2-0.2,0.4-0.2,0.8v0.4h1.1V186.8z"/>
			<path class="st8" d="M346.3,185c-0.1-0.1-0.2-0.3-0.2-0.4s0.1-0.3,0.2-0.4s0.3-0.2,0.4-0.2s0.3,0.1,0.4,0.2s0.2,0.3,0.2,0.4
				s-0.1,0.3-0.2,0.4c-0.1,0.1-0.3,0.2-0.4,0.2C346.5,185.2,346.4,185.1,346.3,185z M347.2,186.1v5.5h-0.9v-5.5H347.2z"/>
			<path class="st8" d="M352.2,186.3c0.4,0.2,0.6,0.5,0.8,0.8v-1h0.9v5.6c0,0.5-0.1,0.9-0.3,1.3s-0.5,0.7-0.9,0.9s-0.9,0.3-1.4,0.3
				c-0.7,0-1.3-0.2-1.8-0.5c-0.5-0.3-0.8-0.8-0.9-1.4h0.9c0.1,0.3,0.3,0.6,0.6,0.8c0.3,0.2,0.7,0.3,1.1,0.3c0.5,0,0.9-0.2,1.2-0.5
				c0.3-0.3,0.5-0.8,0.5-1.3v-1.1c-0.2,0.3-0.5,0.6-0.8,0.8c-0.4,0.2-0.8,0.3-1.2,0.3c-0.5,0-0.9-0.1-1.3-0.4
				c-0.4-0.2-0.7-0.6-0.9-1s-0.3-0.9-0.3-1.5c0-0.6,0.1-1.1,0.3-1.5c0.2-0.4,0.5-0.8,0.9-1s0.8-0.4,1.3-0.4
				C351.5,186,351.9,186.1,352.2,186.3z M352.8,187.7c-0.2-0.3-0.4-0.5-0.7-0.7c-0.3-0.2-0.6-0.3-0.9-0.3s-0.6,0.1-0.9,0.2
				s-0.5,0.4-0.7,0.7s-0.3,0.7-0.3,1.1c0,0.4,0.1,0.8,0.3,1.1s0.4,0.6,0.7,0.7s0.6,0.3,0.9,0.3s0.6-0.1,0.9-0.3s0.5-0.4,0.7-0.7
				c0.2-0.3,0.3-0.7,0.3-1.1S352.9,188,352.8,187.7z"/>
		</g>
	</g>
</g>
<g>
	<g>
		<g>
			<path class="st8" d="M309.7,207.6l-2.7,11.1h-0.9l2.7-11.1H309.7z"/>
			<path class="st8" d="M312.1,216.8c-0.4-0.2-0.7-0.6-1-1c-0.2-0.4-0.4-0.9-0.4-1.5c0-0.6,0.1-1.1,0.4-1.5c0.2-0.4,0.6-0.8,1-1
				c0.4-0.2,0.9-0.4,1.4-0.4s1,0.1,1.4,0.4c0.4,0.2,0.8,0.6,1,1c0.2,0.4,0.4,0.9,0.4,1.5s-0.1,1.1-0.4,1.5s-0.6,0.8-1,1
				c-0.4,0.2-0.9,0.4-1.4,0.4C313,217.1,312.5,217,312.1,216.8z M314.4,216.1c0.3-0.1,0.5-0.4,0.7-0.7c0.2-0.3,0.3-0.7,0.3-1.1
				s-0.1-0.8-0.3-1.1s-0.4-0.5-0.7-0.7c-0.3-0.1-0.6-0.2-0.9-0.2c-0.3,0-0.6,0.1-0.9,0.2c-0.3,0.1-0.5,0.4-0.7,0.7s-0.3,0.7-0.3,1.1
				c0,0.4,0.1,0.8,0.3,1.1c0.2,0.3,0.4,0.5,0.6,0.7c0.3,0.1,0.6,0.2,0.9,0.2C313.8,216.3,314.1,216.3,314.4,216.1z"/>
			<path class="st8" d="M319.5,216.2l1.7-4.6h1L320,217H319l-2.1-5.5h1L319.5,216.2z"/>
			<path class="st8" d="M328,214.6h-4.4c0,0.5,0.2,1,0.5,1.3c0.3,0.3,0.8,0.5,1.2,0.5c0.4,0,0.7-0.1,1-0.3s0.5-0.4,0.5-0.7h1
				c-0.1,0.5-0.4,1-0.9,1.3s-1,0.5-1.6,0.5c-0.5,0-1-0.1-1.4-0.4s-0.7-0.6-1-1c-0.2-0.4-0.4-0.9-0.4-1.5s0.1-1.1,0.3-1.5
				s0.5-0.8,1-1c0.4-0.2,0.9-0.4,1.4-0.4c0.5,0,1,0.1,1.4,0.3s0.7,0.5,0.9,0.9c0.2,0.4,0.3,0.8,0.3,1.3
				C328.1,214.3,328.1,214.4,328,214.6z M326.9,213c-0.1-0.3-0.4-0.4-0.6-0.6c-0.3-0.1-0.5-0.2-0.9-0.2c-0.5,0-0.9,0.1-1.2,0.4
				c-0.3,0.3-0.5,0.7-0.5,1.2h3.5C327.1,213.6,327.1,213.3,326.9,213z"/>
			<path class="st8" d="M330.9,211.7c0.3-0.2,0.7-0.3,1.1-0.3v0.9h-0.2c-1,0-1.5,0.6-1.5,1.7v3h-0.9v-5.5h0.9v0.9
				C330.4,212.1,330.6,211.9,330.9,211.7z"/>
			<path class="st8" d="M335,216.2l1.7-4.6h1l-2.1,5.5h-1.1l-2.1-5.5h1L335,216.2z"/>
			<path class="st8" d="M338.6,210.5c-0.1-0.1-0.2-0.3-0.2-0.4s0.1-0.3,0.2-0.4s0.3-0.2,0.4-0.2s0.3,0.1,0.4,0.2s0.2,0.3,0.2,0.4
				s-0.1,0.3-0.2,0.4c-0.1,0.1-0.3,0.2-0.4,0.2S338.8,210.6,338.6,210.5z M339.5,211.6v5.5h-0.9v-5.5H339.5z"/>
			<path class="st8" d="M346,214.6h-4.4c0,0.5,0.2,1,0.5,1.3c0.3,0.3,0.8,0.5,1.2,0.5c0.4,0,0.7-0.1,1-0.3s0.5-0.4,0.5-0.7h1
				c-0.1,0.5-0.4,1-0.9,1.3s-1,0.5-1.6,0.5c-0.5,0-1-0.1-1.4-0.4s-0.7-0.6-1-1c-0.2-0.4-0.4-0.9-0.4-1.5s0.1-1.1,0.3-1.5
				s0.5-0.8,1-1c0.4-0.2,0.9-0.4,1.4-0.4c0.5,0,1,0.1,1.4,0.3s0.7,0.5,0.9,0.9c0.2,0.4,0.3,0.8,0.3,1.3
				C346.1,214.3,346.1,214.4,346,214.6z M344.9,213c-0.1-0.3-0.4-0.4-0.6-0.6c-0.3-0.1-0.5-0.2-0.9-0.2c-0.5,0-0.9,0.1-1.2,0.4
				c-0.3,0.3-0.5,0.7-0.5,1.2h3.5C345.1,213.6,345.1,213.3,344.9,213z"/>
			<path class="st8" d="M354.6,211.6l-1.7,5.5h-0.9l-1.3-4.4l-1.3,4.4h-0.9l-1.7-5.5h0.9l1.3,4.6l1.4-4.6h0.9l1.3,4.6l1.2-4.6H354.6
				z"/>
		</g>
	</g>
	<g>
		<g>
			<path class="st9" d="M309.7,207.6l-2.7,11.1h-0.9l2.7-11.1H309.7z"/>
			<path class="st9" d="M312.1,216.8c-0.4-0.2-0.7-0.6-1-1c-0.2-0.4-0.4-0.9-0.4-1.5c0-0.6,0.1-1.1,0.4-1.5c0.2-0.4,0.6-0.8,1-1
				c0.4-0.2,0.9-0.4,1.4-0.4s1,0.1,1.4,0.4c0.4,0.2,0.8,0.6,1,1c0.2,0.4,0.4,0.9,0.4,1.5s-0.1,1.1-0.4,1.5s-0.6,0.8-1,1
				c-0.4,0.2-0.9,0.4-1.4,0.4C313,217.1,312.5,217,312.1,216.8z M314.4,216.1c0.3-0.1,0.5-0.4,0.7-0.7c0.2-0.3,0.3-0.7,0.3-1.1
				s-0.1-0.8-0.3-1.1s-0.4-0.5-0.7-0.7c-0.3-0.1-0.6-0.2-0.9-0.2c-0.3,0-0.6,0.1-0.9,0.2c-0.3,0.1-0.5,0.4-0.7,0.7s-0.3,0.7-0.3,1.1
				c0,0.4,0.1,0.8,0.3,1.1c0.2,0.3,0.4,0.5,0.6,0.7c0.3,0.1,0.6,0.2,0.9,0.2C313.8,216.3,314.1,216.3,314.4,216.1z"/>
			<path class="st9" d="M319.5,216.2l1.7-4.6h1L320,217H319l-2.1-5.5h1L319.5,216.2z"/>
			<path class="st9" d="M328,214.6h-4.4c0,0.5,0.2,1,0.5,1.3c0.3,0.3,0.8,0.5,1.2,0.5c0.4,0,0.7-0.1,1-0.3s0.5-0.4,0.5-0.7h1
				c-0.1,0.5-0.4,1-0.9,1.3s-1,0.5-1.6,0.5c-0.5,0-1-0.1-1.4-0.4s-0.7-0.6-1-1c-0.2-0.4-0.4-0.9-0.4-1.5s0.1-1.1,0.3-1.5
				s0.5-0.8,1-1c0.4-0.2,0.9-0.4,1.4-0.4c0.5,0,1,0.1,1.4,0.3s0.7,0.5,0.9,0.9c0.2,0.4,0.3,0.8,0.3,1.3
				C328.1,214.3,328.1,214.4,328,214.6z M326.9,213c-0.1-0.3-0.4-0.4-0.6-0.6c-0.3-0.1-0.5-0.2-0.9-0.2c-0.5,0-0.9,0.1-1.2,0.4
				c-0.3,0.3-0.5,0.7-0.5,1.2h3.5C327.1,213.6,327.1,213.3,326.9,213z"/>
			<path class="st9" d="M330.9,211.7c0.3-0.2,0.7-0.3,1.1-0.3v0.9h-0.2c-1,0-1.5,0.6-1.5,1.7v3h-0.9v-5.5h0.9v0.9
				C330.4,212.1,330.6,211.9,330.9,211.7z"/>
			<path class="st9" d="M335,216.2l1.7-4.6h1l-2.1,5.5h-1.1l-2.1-5.5h1L335,216.2z"/>
			<path class="st9" d="M338.6,210.5c-0.1-0.1-0.2-0.3-0.2-0.4s0.1-0.3,0.2-0.4s0.3-0.2,0.4-0.2s0.3,0.1,0.4,0.2s0.2,0.3,0.2,0.4
				s-0.1,0.3-0.2,0.4c-0.1,0.1-0.3,0.2-0.4,0.2S338.8,210.6,338.6,210.5z M339.5,211.6v5.5h-0.9v-5.5H339.5z"/>
			<path class="st9" d="M346,214.6h-4.4c0,0.5,0.2,1,0.5,1.3c0.3,0.3,0.8,0.5,1.2,0.5c0.4,0,0.7-0.1,1-0.3s0.5-0.4,0.5-0.7h1
				c-0.1,0.5-0.4,1-0.9,1.3s-1,0.5-1.6,0.5c-0.5,0-1-0.1-1.4-0.4s-0.7-0.6-1-1c-0.2-0.4-0.4-0.9-0.4-1.5s0.1-1.1,0.3-1.5
				s0.5-0.8,1-1c0.4-0.2,0.9-0.4,1.4-0.4c0.5,0,1,0.1,1.4,0.3s0.7,0.5,0.9,0.9c0.2,0.4,0.3,0.8,0.3,1.3
				C346.1,214.3,346.1,214.4,346,214.6z M344.9,213c-0.1-0.3-0.4-0.4-0.6-0.6c-0.3-0.1-0.5-0.2-0.9-0.2c-0.5,0-0.9,0.1-1.2,0.4
				c-0.3,0.3-0.5,0.7-0.5,1.2h3.5C345.1,213.6,345.1,213.3,344.9,213z"/>
			<path class="st9" d="M354.6,211.6l-1.7,5.5h-0.9l-1.3-4.4l-1.3,4.4h-0.9l-1.7-5.5h0.9l1.3,4.6l1.4-4.6h0.9l1.3,4.6l1.2-4.6H354.6
				z"/>
		</g>
	</g>
	<g>
		<g>
			<path class="st8" d="M309.7,207.6l-2.7,11.1h-0.9l2.7-11.1H309.7z"/>
			<path class="st8" d="M312.1,216.8c-0.4-0.2-0.7-0.6-1-1c-0.2-0.4-0.4-0.9-0.4-1.5c0-0.6,0.1-1.1,0.4-1.5c0.2-0.4,0.6-0.8,1-1
				c0.4-0.2,0.9-0.4,1.4-0.4s1,0.1,1.4,0.4c0.4,0.2,0.8,0.6,1,1c0.2,0.4,0.4,0.9,0.4,1.5s-0.1,1.1-0.4,1.5s-0.6,0.8-1,1
				c-0.4,0.2-0.9,0.4-1.4,0.4C313,217.1,312.5,217,312.1,216.8z M314.4,216.1c0.3-0.1,0.5-0.4,0.7-0.7c0.2-0.3,0.3-0.7,0.3-1.1
				s-0.1-0.8-0.3-1.1s-0.4-0.5-0.7-0.7c-0.3-0.1-0.6-0.2-0.9-0.2c-0.3,0-0.6,0.1-0.9,0.2c-0.3,0.1-0.5,0.4-0.7,0.7s-0.3,0.7-0.3,1.1
				c0,0.4,0.1,0.8,0.3,1.1c0.2,0.3,0.4,0.5,0.6,0.7c0.3,0.1,0.6,0.2,0.9,0.2C313.8,216.3,314.1,216.3,314.4,216.1z"/>
			<path class="st8" d="M319.5,216.2l1.7-4.6h1L320,217H319l-2.1-5.5h1L319.5,216.2z"/>
			<path class="st8" d="M328,214.6h-4.4c0,0.5,0.2,1,0.5,1.3c0.3,0.3,0.8,0.5,1.2,0.5c0.4,0,0.7-0.1,1-0.3s0.5-0.4,0.5-0.7h1
				c-0.1,0.5-0.4,1-0.9,1.3s-1,0.5-1.6,0.5c-0.5,0-1-0.1-1.4-0.4s-0.7-0.6-1-1c-0.2-0.4-0.4-0.9-0.4-1.5s0.1-1.1,0.3-1.5
				s0.5-0.8,1-1c0.4-0.2,0.9-0.4,1.4-0.4c0.5,0,1,0.1,1.4,0.3s0.7,0.5,0.9,0.9c0.2,0.4,0.3,0.8,0.3,1.3
				C328.1,214.3,328.1,214.4,328,214.6z M326.9,213c-0.1-0.3-0.4-0.4-0.6-0.6c-0.3-0.1-0.5-0.2-0.9-0.2c-0.5,0-0.9,0.1-1.2,0.4
				c-0.3,0.3-0.5,0.7-0.5,1.2h3.5C327.1,213.6,327.1,213.3,326.9,213z"/>
			<path class="st8" d="M330.9,211.7c0.3-0.2,0.7-0.3,1.1-0.3v0.9h-0.2c-1,0-1.5,0.6-1.5,1.7v3h-0.9v-5.5h0.9v0.9
				C330.4,212.1,330.6,211.9,330.9,211.7z"/>
			<path class="st8" d="M335,216.2l1.7-4.6h1l-2.1,5.5h-1.1l-2.1-5.5h1L335,216.2z"/>
			<path class="st8" d="M338.6,210.5c-0.1-0.1-0.2-0.3-0.2-0.4s0.1-0.3,0.2-0.4s0.3-0.2,0.4-0.2s0.3,0.1,0.4,0.2s0.2,0.3,0.2,0.4
				s-0.1,0.3-0.2,0.4c-0.1,0.1-0.3,0.2-0.4,0.2S338.8,210.6,338.6,210.5z M339.5,211.6v5.5h-0.9v-5.5H339.5z"/>
			<path class="st8" d="M346,214.6h-4.4c0,0.5,0.2,1,0.5,1.3c0.3,0.3,0.8,0.5,1.2,0.5c0.4,0,0.7-0.1,1-0.3s0.5-0.4,0.5-0.7h1
				c-0.1,0.5-0.4,1-0.9,1.3s-1,0.5-1.6,0.5c-0.5,0-1-0.1-1.4-0.4s-0.7-0.6-1-1c-0.2-0.4-0.4-0.9-0.4-1.5s0.1-1.1,0.3-1.5
				s0.5-0.8,1-1c0.4-0.2,0.9-0.4,1.4-0.4c0.5,0,1,0.1,1.4,0.3s0.7,0.5,0.9,0.9c0.2,0.4,0.3,0.8,0.3,1.3
				C346.1,214.3,346.1,214.4,346,214.6z M344.9,213c-0.1-0.3-0.4-0.4-0.6-0.6c-0.3-0.1-0.5-0.2-0.9-0.2c-0.5,0-0.9,0.1-1.2,0.4
				c-0.3,0.3-0.5,0.7-0.5,1.2h3.5C345.1,213.6,345.1,213.3,344.9,213z"/>
			<path class="st8" d="M354.6,211.6l-1.7,5.5h-0.9l-1.3-4.4l-1.3,4.4h-0.9l-1.7-5.5h0.9l1.3,4.6l1.4-4.6h0.9l1.3,4.6l1.2-4.6H354.6
				z"/>
		</g>
	</g>
</g>
<g>
	<g>
		<g>
			<path class="st8" d="M334.8,233.1l-2.7,11.1h-0.9l2.7-11.1H334.8z"/>
			<path class="st8" d="M341.1,240.1h-4.4c0,0.5,0.2,1,0.5,1.3c0.3,0.3,0.7,0.5,1.2,0.5c0.4,0,0.7-0.1,1-0.3s0.5-0.4,0.5-0.7h1
				c-0.1,0.5-0.4,1-0.9,1.3c-0.4,0.3-1,0.5-1.6,0.5c-0.5,0-1-0.1-1.4-0.4s-0.7-0.6-1-1c-0.2-0.4-0.4-0.9-0.4-1.5s0.1-1.1,0.3-1.5
				s0.5-0.8,1-1s0.9-0.4,1.4-0.4c0.5,0,1,0.1,1.4,0.3s0.7,0.5,0.9,0.9s0.3,0.8,0.3,1.3C341.1,239.8,341.1,239.9,341.1,240.1z
				 M339.9,238.5c-0.1-0.3-0.4-0.4-0.6-0.6c-0.3-0.1-0.5-0.2-0.9-0.2c-0.5,0-0.9,0.1-1.2,0.4c-0.3,0.3-0.5,0.7-0.5,1.2h3.5
				C340.2,239.1,340.1,238.8,339.9,238.5z"/>
			<path class="st8" d="M346.6,237.6c0.4,0.4,0.6,1,0.6,1.7v3.2h-0.9v-3.1c0-0.6-0.1-1-0.4-1.3s-0.6-0.4-1.1-0.4
				c-0.5,0-0.9,0.1-1.1,0.4c-0.3,0.3-0.4,0.7-0.4,1.3v3h-0.9v-5.5h0.9v0.8c0.2-0.3,0.4-0.5,0.7-0.6c0.3-0.1,0.6-0.2,1-0.2
				C345.6,237,346.2,237.2,346.6,237.6z"/>
			<path class="st8" d="M348.7,238.3c0.2-0.4,0.5-0.8,0.9-1s0.8-0.4,1.3-0.4c0.4,0,0.8,0.1,1.2,0.3c0.4,0.2,0.6,0.5,0.8,0.8v-2.9
				h0.9v7.4H353v-1c-0.2,0.3-0.5,0.6-0.8,0.8s-0.8,0.3-1.2,0.3c-0.5,0-0.9-0.1-1.3-0.4c-0.4-0.2-0.7-0.6-0.9-1s-0.3-0.9-0.3-1.5
				C348.4,239.2,348.5,238.7,348.7,238.3z M352.8,238.7c-0.2-0.3-0.4-0.5-0.7-0.7c-0.3-0.2-0.6-0.3-0.9-0.3s-0.6,0.1-0.9,0.2
				s-0.5,0.4-0.7,0.7s-0.3,0.7-0.3,1.1c0,0.4,0.1,0.8,0.3,1.1s0.4,0.6,0.7,0.7s0.6,0.3,0.9,0.3s0.6-0.1,0.9-0.3s0.5-0.4,0.7-0.7
				c0.2-0.3,0.3-0.7,0.3-1.1S352.9,239,352.8,238.7z"/>
		</g>
	</g>
	<g>
		<g>
			<path class="st9" d="M334.8,233.1l-2.7,11.1h-0.9l2.7-11.1H334.8z"/>
			<path class="st9" d="M341.1,240.1h-4.4c0,0.5,0.2,1,0.5,1.3c0.3,0.3,0.7,0.5,1.2,0.5c0.4,0,0.7-0.1,1-0.3s0.5-0.4,0.5-0.7h1
				c-0.1,0.5-0.4,1-0.9,1.3c-0.4,0.3-1,0.5-1.6,0.5c-0.5,0-1-0.1-1.4-0.4s-0.7-0.6-1-1c-0.2-0.4-0.4-0.9-0.4-1.5s0.1-1.1,0.3-1.5
				s0.5-0.8,1-1s0.9-0.4,1.4-0.4c0.5,0,1,0.1,1.4,0.3s0.7,0.5,0.9,0.9s0.3,0.8,0.3,1.3C341.1,239.8,341.1,239.9,341.1,240.1z
				 M339.9,238.5c-0.1-0.3-0.4-0.4-0.6-0.6c-0.3-0.1-0.5-0.2-0.9-0.2c-0.5,0-0.9,0.1-1.2,0.4c-0.3,0.3-0.5,0.7-0.5,1.2h3.5
				C340.2,239.1,340.1,238.8,339.9,238.5z"/>
			<path class="st9" d="M346.6,237.6c0.4,0.4,0.6,1,0.6,1.7v3.2h-0.9v-3.1c0-0.6-0.1-1-0.4-1.3s-0.6-0.4-1.1-0.4
				c-0.5,0-0.9,0.1-1.1,0.4c-0.3,0.3-0.4,0.7-0.4,1.3v3h-0.9v-5.5h0.9v0.8c0.2-0.3,0.4-0.5,0.7-0.6c0.3-0.1,0.6-0.2,1-0.2
				C345.6,237,346.2,237.2,346.6,237.6z"/>
			<path class="st9" d="M348.7,238.3c0.2-0.4,0.5-0.8,0.9-1s0.8-0.4,1.3-0.4c0.4,0,0.8,0.1,1.2,0.3c0.4,0.2,0.6,0.5,0.8,0.8v-2.9
				h0.9v7.4H353v-1c-0.2,0.3-0.5,0.6-0.8,0.8s-0.8,0.3-1.2,0.3c-0.5,0-0.9-0.1-1.3-0.4c-0.4-0.2-0.7-0.6-0.9-1s-0.3-0.9-0.3-1.5
				C348.4,239.2,348.5,238.7,348.7,238.3z M352.8,238.7c-0.2-0.3-0.4-0.5-0.7-0.7c-0.3-0.2-0.6-0.3-0.9-0.3s-0.6,0.1-0.9,0.2
				s-0.5,0.4-0.7,0.7s-0.3,0.7-0.3,1.1c0,0.4,0.1,0.8,0.3,1.1s0.4,0.6,0.7,0.7s0.6,0.3,0.9,0.3s0.6-0.1,0.9-0.3s0.5-0.4,0.7-0.7
				c0.2-0.3,0.3-0.7,0.3-1.1S352.9,239,352.8,238.7z"/>
		</g>
	</g>
	<g>
		<g>
			<path class="st8" d="M334.8,233.1l-2.7,11.1h-0.9l2.7-11.1H334.8z"/>
			<path class="st8" d="M341.1,240.1h-4.4c0,0.5,0.2,1,0.5,1.3c0.3,0.3,0.7,0.5,1.2,0.5c0.4,0,0.7-0.1,1-0.3s0.5-0.4,0.5-0.7h1
				c-0.1,0.5-0.4,1-0.9,1.3c-0.4,0.3-1,0.5-1.6,0.5c-0.5,0-1-0.1-1.4-0.4s-0.7-0.6-1-1c-0.2-0.4-0.4-0.9-0.4-1.5s0.1-1.1,0.3-1.5
				s0.5-0.8,1-1s0.9-0.4,1.4-0.4c0.5,0,1,0.1,1.4,0.3s0.7,0.5,0.9,0.9s0.3,0.8,0.3,1.3C341.1,239.8,341.1,239.9,341.1,240.1z
				 M339.9,238.5c-0.1-0.3-0.4-0.4-0.6-0.6c-0.3-0.1-0.5-0.2-0.9-0.2c-0.5,0-0.9,0.1-1.2,0.4c-0.3,0.3-0.5,0.7-0.5,1.2h3.5
				C340.2,239.1,340.1,238.8,339.9,238.5z"/>
			<path class="st8" d="M346.6,237.6c0.4,0.4,0.6,1,0.6,1.7v3.2h-0.9v-3.1c0-0.6-0.1-1-0.4-1.3s-0.6-0.4-1.1-0.4
				c-0.5,0-0.9,0.1-1.1,0.4c-0.3,0.3-0.4,0.7-0.4,1.3v3h-0.9v-5.5h0.9v0.8c0.2-0.3,0.4-0.5,0.7-0.6c0.3-0.1,0.6-0.2,1-0.2
				C345.6,237,346.2,237.2,346.6,237.6z"/>
			<path class="st8" d="M348.7,238.3c0.2-0.4,0.5-0.8,0.9-1s0.8-0.4,1.3-0.4c0.4,0,0.8,0.1,1.2,0.3c0.4,0.2,0.6,0.5,0.8,0.8v-2.9
				h0.9v7.4H353v-1c-0.2,0.3-0.5,0.6-0.8,0.8s-0.8,0.3-1.2,0.3c-0.5,0-0.9-0.1-1.3-0.4c-0.4-0.2-0.7-0.6-0.9-1s-0.3-0.9-0.3-1.5
				C348.4,239.2,348.5,238.7,348.7,238.3z M352.8,238.7c-0.2-0.3-0.4-0.5-0.7-0.7c-0.3-0.2-0.6-0.3-0.9-0.3s-0.6,0.1-0.9,0.2
				s-0.5,0.4-0.7,0.7s-0.3,0.7-0.3,1.1c0,0.4,0.1,0.8,0.3,1.1s0.4,0.6,0.7,0.7s0.6,0.3,0.9,0.3s0.6-0.1,0.9-0.3s0.5-0.4,0.7-0.7
				c0.2-0.3,0.3-0.7,0.3-1.1S352.9,239,352.8,238.7z"/>
		</g>
	</g>
</g>
<path class="st10" d="M258.3,54.1L258.3,54.1c0-2.6,2.1-4.7,4.7-4.7h60.5c1.3,0,2.5,0.5,3.4,1.4s1.4,2.1,1.4,3.3V73
	c0,2.6-2.1,4.7-4.7,4.7H263c-2.6,0-4.7-2.1-4.7-4.7L258.3,54.1L258.3,54.1z"/>
<g>
	<path class="st1" d="M267.4,57.5c-0.2,0.3-0.5,0.6-0.9,0.8c-0.4,0.2-0.9,0.3-1.4,0.3H264v2.5h-1.7v-7h2.8c0.6,0,1,0.1,1.4,0.3
		c0.4,0.2,0.7,0.5,0.9,0.8s0.3,0.7,0.3,1.2C267.7,56.8,267.6,57.2,267.4,57.5z M265.7,57.1c0.2-0.2,0.2-0.4,0.2-0.7
		c0-0.3-0.1-0.5-0.2-0.7s-0.4-0.2-0.7-0.2H264v1.8h0.9C265.3,57.3,265.5,57.2,265.7,57.1z"/>
	<path class="st1" d="M271,55.8c0.3-0.2,0.6-0.3,1-0.3v1.8h-0.5c-0.4,0-0.8,0.1-1,0.3c-0.2,0.2-0.3,0.5-0.3,1v2.6h-1.7v-5.6h1.7v0.9
		C270.5,56.2,270.7,56,271,55.8z"/>
	<path class="st1" d="M273.9,60.9c-0.4-0.2-0.8-0.6-1-1s-0.4-0.9-0.4-1.5c0-0.6,0.1-1.1,0.4-1.5c0.3-0.4,0.6-0.8,1-1
		s0.9-0.3,1.5-0.3s1,0.1,1.5,0.3s0.8,0.6,1,1c0.3,0.4,0.4,0.9,0.4,1.5s-0.1,1.1-0.4,1.5c-0.3,0.4-0.6,0.8-1,1s-0.9,0.3-1.5,0.3
		S274.4,61.1,273.9,60.9z M276.2,59.4c0.2-0.2,0.3-0.6,0.3-1s-0.1-0.8-0.3-1c-0.2-0.2-0.5-0.4-0.8-0.4s-0.6,0.1-0.8,0.3
		c-0.2,0.2-0.3,0.6-0.3,1c0,0.5,0.1,0.8,0.3,1s0.5,0.4,0.8,0.4C275.7,59.8,276,59.6,276.2,59.4z"/>
	<path class="st1" d="M282.4,55.7c0.3,0.2,0.5,0.4,0.7,0.6v-0.8h1.7v5.6c0,0.5-0.1,1-0.3,1.4c-0.2,0.4-0.5,0.8-0.9,1
		c-0.4,0.3-0.9,0.4-1.5,0.4c-0.8,0-1.5-0.2-2-0.6c-0.5-0.4-0.8-0.9-0.9-1.6h1.7c0,0.2,0.2,0.4,0.4,0.5s0.5,0.2,0.7,0.2
		c0.4,0,0.6-0.1,0.8-0.3s0.3-0.5,0.3-1v-0.8c-0.2,0.3-0.4,0.5-0.7,0.6s-0.6,0.3-1,0.3c-0.5,0-0.9-0.1-1.3-0.4s-0.7-0.6-0.9-1
		c-0.2-0.4-0.3-0.9-0.3-1.5s0.1-1.1,0.3-1.5c0.2-0.4,0.5-0.8,0.9-1s0.8-0.3,1.3-0.3C281.7,55.5,282.1,55.6,282.4,55.7z M282.7,57.4
		c-0.2-0.3-0.5-0.4-0.9-0.4s-0.6,0.1-0.9,0.4s-0.4,0.6-0.4,1s0.1,0.8,0.4,1s0.5,0.4,0.9,0.4s0.6-0.1,0.9-0.4s0.4-0.6,0.4-1
		S282.9,57.6,282.7,57.4z"/>
	<path class="st1" d="M288.5,55.8c0.3-0.2,0.6-0.3,1-0.3v1.8H289c-0.4,0-0.8,0.1-1,0.3c-0.2,0.2-0.3,0.5-0.3,1v2.6H286v-5.6h1.7v0.9
		C287.9,56.2,288.2,56,288.5,55.8z"/>
	<path class="st1" d="M295.5,58.8h-3.9c0,0.3,0.1,0.6,0.3,0.8c0.2,0.2,0.4,0.3,0.7,0.3c0.4,0,0.7-0.2,0.9-0.5h1.8
		c-0.1,0.4-0.3,0.7-0.5,1s-0.5,0.5-0.9,0.7c-0.4,0.2-0.8,0.3-1.2,0.3c-0.5,0-1-0.1-1.5-0.3s-0.8-0.6-1-1s-0.4-0.9-0.4-1.5
		s0.1-1.1,0.4-1.5c0.2-0.4,0.6-0.8,1-1s0.9-0.3,1.5-0.3c0.5,0,1,0.1,1.4,0.3s0.8,0.5,1,1c0.2,0.4,0.4,0.9,0.4,1.5
		C295.5,58.4,295.5,58.6,295.5,58.8z M293.8,57.8c0-0.3-0.1-0.5-0.3-0.7c-0.2-0.2-0.5-0.3-0.8-0.3c-0.3,0-0.5,0.1-0.7,0.3
		c-0.2,0.2-0.3,0.4-0.4,0.7H293.8z"/>
	<path class="st1" d="M297.4,61c-0.4-0.2-0.7-0.4-0.9-0.7c-0.2-0.3-0.3-0.6-0.4-1h1.7c0,0.2,0.1,0.3,0.3,0.5s0.4,0.2,0.6,0.2
		c0.2,0,0.4,0,0.5-0.1c0.1-0.1,0.2-0.2,0.2-0.3c0-0.2-0.1-0.3-0.3-0.4s-0.4-0.2-0.8-0.3c-0.4-0.1-0.7-0.2-1-0.3
		c-0.3-0.1-0.5-0.3-0.7-0.5s-0.3-0.5-0.3-0.9c0-0.3,0.1-0.6,0.3-0.9c0.2-0.3,0.4-0.5,0.8-0.6s0.8-0.2,1.2-0.2c0.7,0,1.3,0.2,1.7,0.5
		c0.4,0.3,0.6,0.8,0.7,1.4h-1.6c0-0.2-0.1-0.3-0.3-0.5c-0.1-0.1-0.3-0.2-0.6-0.2c-0.2,0-0.4,0-0.5,0.1c-0.1,0.1-0.2,0.2-0.2,0.3
		c0,0.2,0.1,0.3,0.3,0.4c0.2,0.1,0.4,0.2,0.8,0.2c0.4,0.1,0.8,0.2,1,0.3s0.5,0.3,0.7,0.5s0.3,0.5,0.3,0.9c0,0.3-0.1,0.6-0.3,0.9
		s-0.5,0.5-0.8,0.6s-0.7,0.2-1.2,0.2C298.2,61.2,297.8,61.2,297.4,61z"/>
	<path class="st1" d="M303,61c-0.4-0.2-0.7-0.4-0.9-0.7c-0.2-0.3-0.3-0.6-0.4-1h1.7c0,0.2,0.1,0.3,0.3,0.5s0.4,0.2,0.6,0.2
		c0.2,0,0.4,0,0.5-0.1c0.1-0.1,0.2-0.2,0.2-0.3c0-0.2-0.1-0.3-0.3-0.4s-0.4-0.2-0.8-0.3c-0.4-0.1-0.7-0.2-1-0.3
		c-0.3-0.1-0.5-0.3-0.7-0.5s-0.3-0.5-0.3-0.9c0-0.3,0.1-0.6,0.3-0.9c0.2-0.3,0.4-0.5,0.8-0.6s0.8-0.2,1.2-0.2c0.7,0,1.3,0.2,1.7,0.5
		c0.4,0.3,0.6,0.8,0.7,1.4H305c0-0.2-0.1-0.3-0.3-0.5c-0.1-0.1-0.3-0.2-0.6-0.2c-0.2,0-0.4,0-0.5,0.1c-0.1,0.1-0.2,0.2-0.2,0.3
		c0,0.2,0.1,0.3,0.3,0.4s0.4,0.2,0.8,0.2c0.4,0.1,0.8,0.2,1,0.3s0.5,0.3,0.7,0.5s0.3,0.5,0.3,0.9c0,0.3-0.1,0.6-0.3,0.9
		s-0.5,0.5-0.8,0.6s-0.7,0.2-1.2,0.2C303.8,61.2,303.4,61.2,303,61z"/>
	<path class="st1" d="M310,55.7c0.3-0.2,0.6-0.2,1-0.2c0.5,0,0.9,0.1,1.3,0.3s0.7,0.6,0.9,1c0.2,0.4,0.3,0.9,0.3,1.5
		s-0.1,1.1-0.3,1.5s-0.5,0.8-0.9,1c-0.4,0.2-0.8,0.4-1.3,0.4c-0.4,0-0.7-0.1-1-0.2s-0.5-0.4-0.7-0.6v0.8h-1.7v-7.4h1.7v2.6
		C309.5,56.1,309.7,55.9,310,55.7z M311.4,57.4c-0.2-0.2-0.5-0.4-0.9-0.4c-0.3,0-0.6,0.1-0.9,0.4s-0.4,0.6-0.4,1s0.1,0.8,0.4,1
		s0.5,0.4,0.9,0.4s0.6-0.1,0.9-0.4s0.4-0.6,0.4-1S311.6,57.6,311.4,57.4z"/>
	<path class="st1" d="M314.4,56.9c0.2-0.4,0.5-0.8,0.9-1s0.8-0.3,1.3-0.3c0.4,0,0.7,0.1,1,0.2c0.3,0.2,0.5,0.4,0.7,0.6v-0.8h1.7v5.6
		h-1.7v-0.8c-0.2,0.3-0.4,0.5-0.7,0.6c-0.3,0.2-0.6,0.2-1,0.2c-0.5,0-0.9-0.1-1.2-0.4c-0.4-0.2-0.7-0.6-0.9-1
		c-0.2-0.4-0.3-0.9-0.3-1.5S314.2,57.3,314.4,56.9z M317.9,57.4c-0.2-0.3-0.5-0.4-0.9-0.4s-0.6,0.1-0.9,0.4s-0.4,0.6-0.4,1
		s0.1,0.8,0.4,1s0.5,0.4,0.9,0.4s0.6-0.1,0.9-0.4s0.4-0.6,0.4-1S318.1,57.6,317.9,57.4z"/>
	<path class="st1" d="M323.6,55.8c0.3-0.2,0.6-0.3,1-0.3v1.8h-0.5c-0.4,0-0.8,0.1-1,0.3s-0.3,0.5-0.3,1v2.6h-1.7v-5.6h1.7v0.9
		C323.1,56.2,323.4,56,323.6,55.8z"/>
</g>
<g>
	<path class="st1" d="M285,70.2c0.3,0.3,0.4,0.7,0.4,1.1c0,0.6-0.2,1.1-0.6,1.4c-0.4,0.3-1,0.5-1.7,0.5h-3.3v-7h3.2
		c0.7,0,1.3,0.2,1.7,0.5c0.4,0.3,0.6,0.8,0.6,1.3c0,0.4-0.1,0.8-0.3,1c-0.2,0.3-0.5,0.5-0.9,0.6C284.5,69.7,284.8,69.9,285,70.2z
		 M281.5,69h1.1c0.3,0,0.5-0.1,0.6-0.2c0.1-0.1,0.2-0.3,0.2-0.5s-0.1-0.4-0.2-0.6c-0.1-0.1-0.4-0.2-0.6-0.2h-1.1V69z M283.5,71.6
		c0.2-0.1,0.2-0.3,0.2-0.6c0-0.3-0.1-0.4-0.3-0.6c-0.2-0.1-0.4-0.2-0.7-0.2h-1.2v1.6h1.3C283.1,71.8,283.3,71.7,283.5,71.6z"/>
	<path class="st1" d="M288.1,65.8v7.4h-1.7v-7.4H288.1z"/>
	<path class="st1" d="M290.4,72.9c-0.4-0.2-0.8-0.6-1-1S289,71,289,70.4c0-0.6,0.1-1.1,0.4-1.5c0.3-0.4,0.6-0.8,1-1s0.9-0.3,1.5-0.3
		s1,0.1,1.5,0.3c0.4,0.2,0.8,0.6,1,1c0.3,0.4,0.4,0.9,0.4,1.5s-0.1,1.1-0.4,1.5c-0.3,0.4-0.6,0.8-1,1s-0.9,0.3-1.5,0.3
		S290.9,73.1,290.4,72.9z M292.7,71.4c0.2-0.2,0.3-0.6,0.3-1s-0.1-0.8-0.3-1s-0.5-0.4-0.8-0.4s-0.6,0.1-0.8,0.3
		c-0.2,0.2-0.3,0.6-0.3,1c0,0.4,0.1,0.8,0.3,1s0.5,0.4,0.8,0.4C292.2,71.8,292.5,71.6,292.7,71.4z"/>
	<path class="st1" d="M295.7,68.9c0.2-0.4,0.6-0.8,1-1c0.4-0.2,0.9-0.3,1.5-0.3c0.7,0,1.3,0.2,1.8,0.6c0.5,0.4,0.8,0.9,0.9,1.6H299
		c-0.1-0.4-0.5-0.6-0.9-0.6c-0.3,0-0.6,0.1-0.8,0.4s-0.3,0.6-0.3,1s0.1,0.8,0.3,1s0.4,0.4,0.8,0.4c0.4,0,0.7-0.2,0.9-0.6h1.8
		c-0.1,0.7-0.5,1.2-0.9,1.5s-1.1,0.6-1.8,0.6c-0.5,0-1-0.1-1.5-0.3c-0.4-0.2-0.8-0.6-1-1s-0.4-0.9-0.4-1.5S295.5,69.3,295.7,68.9z"
		/>
	<path class="st1" d="M305.2,73.2l-1.7-2.3v2.3h-1.7v-7.4h1.7v4.1l1.7-2.3h2.1l-2.3,2.8l2.3,2.8C307.3,73.2,305.2,73.2,305.2,73.2z"
		/>
</g>
<path class="st3" d="M358.3,214.8L358.3,214.8c0-2.1,1.7-3.9,3.9-3.9h15.6c1,0,2,0.4,2.8,1.1s1.1,1.7,1.1,2.8v15.6
	c0,2.1-1.7,3.9-3.9,3.9h-15.6c-2.1,0-3.9-1.7-3.9-3.9V214.8z"/>
<g>
	<path class="st1" d="M365.3,226.1v-2.2l5.1-7.2h3.1v7.1h1.3v2.4h-1.3v2.1h-2.7v-2.1H365.3z M370.9,219.7l-2.7,4.1h2.7V219.7z"/>
</g>
<g>
	<path class="st11" d="M330.6,60.6c5.4-1,8.1-3.8,8.1-8.3c0-2-0.3-5.4-0.8-10.3c-0.5-5.2-0.8-8.9-0.8-11.2c0-3.8,1.1-6.7,3.2-8.7
		s5-3,8.6-3h4.6v6.2h-3.2c-2,0-3.6,0.5-4.6,1.4s-1.5,2.4-1.5,4.5c0,1.5,0.1,3.4,0.3,5.7c0.2,2.2,0.3,3.8,0.4,4.5
		c0.5,5.1,0.8,8.7,0.8,11.1c0,2.8-0.7,5.1-2.1,7c-1.4,1.9-3.5,3.1-6.4,3.8v0.2c2.9,0.6,5,1.9,6.4,3.8c1.4,1.9,2.1,4.2,2.1,7
		c0,2.3-0.3,6-0.8,11.1c0,0.8-0.2,2.3-0.4,4.5c-0.2,2.2-0.3,4.1-0.3,5.7c0,2.1,0.5,3.6,1.5,4.5s2.5,1.4,4.6,1.4h3.2v6.2h-4.6
		c-3.6,0-6.4-1-8.6-3s-3.2-4.9-3.2-8.7c0-2.3,0.3-6.1,0.8-11.2c0.5-4.8,0.8-8.3,0.8-10.3c0-4.5-2.7-7.3-8.1-8.3V60.6z"/>
</g>
</svg>
